solid OpenSCAD_Model
  facet normal 0.989177 0.146725 0
    outer loop
      vertex 1.89085 0.186232 8
      vertex 1.86349 0.370671 0
      vertex 1.86349 0.370671 8
    endloop
  endfacet
  facet normal 0.989177 0.146725 0
    outer loop
      vertex 1.86349 0.370671 0
      vertex 1.89085 0.186232 8
      vertex 1.89085 0.186232 0
    endloop
  endfacet
  facet normal 0.998795 0.0490708 0
    outer loop
      vertex 1.9 0 8
      vertex 1.89085 0.186232 0
      vertex 1.89085 0.186232 8
    endloop
  endfacet
  facet normal 0.998795 0.0490708 0
    outer loop
      vertex 1.89085 0.186232 0
      vertex 1.9 0 8
      vertex 1.9 0 0
    endloop
  endfacet
  facet normal 0.97003 0.242984 0
    outer loop
      vertex 1.86349 0.370671 8
      vertex 1.81819 0.55154 0
      vertex 1.81819 0.55154 8
    endloop
  endfacet
  facet normal 0.97003 0.242984 0
    outer loop
      vertex 1.81819 0.55154 0
      vertex 1.86349 0.370671 8
      vertex 1.86349 0.370671 0
    endloop
  endfacet
  facet normal 0.336885 -0.941546 0
    outer loop
      vertex 0.55154 -1.81819 0
      vertex 0.727098 -1.75537 8
      vertex 0.55154 -1.81819 8
    endloop
  endfacet
  facet normal 0.336885 -0.941546 0
    outer loop
      vertex 0.727098 -1.75537 8
      vertex 0.55154 -1.81819 0
      vertex 0.727098 -1.75537 0
    endloop
  endfacet
  facet normal 0.998795 -0.0490708 0
    outer loop
      vertex 1.89085 -0.186232 8
      vertex 1.9 0 0
      vertex 1.9 0 8
    endloop
  endfacet
  facet normal 0.998795 -0.0490708 0
    outer loop
      vertex 1.9 0 0
      vertex 1.89085 -0.186232 8
      vertex 1.89085 -0.186232 0
    endloop
  endfacet
  facet normal 0.242984 0.97003 -0
    outer loop
      vertex 0.55154 1.81819 0
      vertex 0.370671 1.86349 8
      vertex 0.55154 1.81819 8
    endloop
  endfacet
  facet normal 0.242984 0.97003 0
    outer loop
      vertex 0.370671 1.86349 8
      vertex 0.55154 1.81819 0
      vertex 0.370671 1.86349 0
    endloop
  endfacet
  facet normal -0.336885 0.941546 0
    outer loop
      vertex -0.55154 1.81819 0
      vertex -0.727098 1.75537 8
      vertex -0.55154 1.81819 8
    endloop
  endfacet
  facet normal -0.336885 0.941546 0
    outer loop
      vertex -0.727098 1.75537 8
      vertex -0.55154 1.81819 0
      vertex -0.727098 1.75537 0
    endloop
  endfacet
  facet normal -0.336885 -0.941546 0
    outer loop
      vertex -0.727098 -1.75537 0
      vertex -0.55154 -1.81819 8
      vertex -0.727098 -1.75537 8
    endloop
  endfacet
  facet normal -0.336885 -0.941546 -0
    outer loop
      vertex -0.55154 -1.81819 8
      vertex -0.727098 -1.75537 0
      vertex -0.55154 -1.81819 0
    endloop
  endfacet
  facet normal -0.514102 0.857729 0
    outer loop
      vertex -0.895654 1.67565 0
      vertex -1.05558 1.57979 8
      vertex -0.895654 1.67565 8
    endloop
  endfacet
  facet normal -0.514102 0.857729 0
    outer loop
      vertex -1.05558 1.57979 8
      vertex -0.895654 1.67565 0
      vertex -1.05558 1.57979 0
    endloop
  endfacet
  facet normal 0.97003 -0.242984 0
    outer loop
      vertex 1.81819 -0.55154 8
      vertex 1.86349 -0.370671 0
      vertex 1.86349 -0.370671 8
    endloop
  endfacet
  facet normal 0.97003 -0.242984 0
    outer loop
      vertex 1.86349 -0.370671 0
      vertex 1.81819 -0.55154 8
      vertex 1.81819 -0.55154 0
    endloop
  endfacet
  facet normal -0.97003 -0.242984 0
    outer loop
      vertex -1.81819 -0.55154 0
      vertex -1.86349 -0.370671 8
      vertex -1.86349 -0.370671 0
    endloop
  endfacet
  facet normal -0.97003 -0.242984 0
    outer loop
      vertex -1.86349 -0.370671 8
      vertex -1.81819 -0.55154 0
      vertex -1.81819 -0.55154 8
    endloop
  endfacet
  facet normal 0.595699 -0.803208 0
    outer loop
      vertex 1.05558 -1.57979 0
      vertex 1.20535 -1.46872 8
      vertex 1.05558 -1.57979 8
    endloop
  endfacet
  facet normal 0.595699 -0.803208 0
    outer loop
      vertex 1.20535 -1.46872 8
      vertex 1.05558 -1.57979 0
      vertex 1.20535 -1.46872 0
    endloop
  endfacet
  facet normal -0.427558 0.903988 0
    outer loop
      vertex -0.727098 1.75537 0
      vertex -0.895654 1.67565 8
      vertex -0.727098 1.75537 8
    endloop
  endfacet
  facet normal -0.427558 0.903988 0
    outer loop
      vertex -0.895654 1.67565 8
      vertex -0.727098 1.75537 0
      vertex -0.895654 1.67565 0
    endloop
  endfacet
  facet normal 0.903988 0.427558 0
    outer loop
      vertex 1.75537 0.727098 8
      vertex 1.67565 0.895654 0
      vertex 1.67565 0.895654 8
    endloop
  endfacet
  facet normal 0.903988 0.427558 0
    outer loop
      vertex 1.67565 0.895654 0
      vertex 1.75537 0.727098 8
      vertex 1.75537 0.727098 0
    endloop
  endfacet
  facet normal 0.941546 -0.336885 0
    outer loop
      vertex 1.75537 -0.727098 8
      vertex 1.81819 -0.55154 0
      vertex 1.81819 -0.55154 8
    endloop
  endfacet
  facet normal 0.941546 -0.336885 0
    outer loop
      vertex 1.81819 -0.55154 0
      vertex 1.75537 -0.727098 8
      vertex 1.75537 -0.727098 0
    endloop
  endfacet
  facet normal -0.989177 0.146725 0
    outer loop
      vertex -1.89085 0.186232 0
      vertex -1.86349 0.370671 8
      vertex -1.86349 0.370671 0
    endloop
  endfacet
  facet normal -0.989177 0.146725 0
    outer loop
      vertex -1.86349 0.370671 8
      vertex -1.89085 0.186232 0
      vertex -1.89085 0.186232 8
    endloop
  endfacet
  facet normal 0.989177 -0.146725 0
    outer loop
      vertex 1.86349 -0.370671 8
      vertex 1.89085 -0.186232 0
      vertex 1.89085 -0.186232 8
    endloop
  endfacet
  facet normal 0.989177 -0.146725 0
    outer loop
      vertex 1.89085 -0.186232 0
      vertex 1.86349 -0.370671 8
      vertex 1.86349 -0.370671 0
    endloop
  endfacet
  facet normal 0 0 -1
    outer loop
      vertex 1.5 0 0
      vertex 1.9 0 0
      vertex 1.89085 -0.186232 0
    endloop
  endfacet
  facet normal 0 0 -1
    outer loop
      vertex 1.49278 -0.147025 0
      vertex 1.89085 -0.186232 0
      vertex 1.86349 -0.370671 0
    endloop
  endfacet
  facet normal 0 0 -1
    outer loop
      vertex 1.9 0 0
      vertex 1.5 0 0
      vertex 1.89085 0.186232 0
    endloop
  endfacet
  facet normal 0 0 -1
    outer loop
      vertex 1.47118 -0.292635 0
      vertex 1.86349 -0.370671 0
      vertex 1.81819 -0.55154 0
    endloop
  endfacet
  facet normal 0 0 -1
    outer loop
      vertex 1.49278 0.147025 0
      vertex 1.89085 0.186232 0
      vertex 1.5 0 0
    endloop
  endfacet
  facet normal 0 0 -1
    outer loop
      vertex 1.43541 -0.435427 0
      vertex 1.81819 -0.55154 0
      vertex 1.75537 -0.727098 0
    endloop
  endfacet
  facet normal -0 0 -1
    outer loop
      vertex 1.89085 0.186232 0
      vertex 1.49278 0.147025 0
      vertex 1.86349 0.370671 0
    endloop
  endfacet
  facet normal 0 0 -1
    outer loop
      vertex 1.38582 -0.574024 0
      vertex 1.75537 -0.727098 0
      vertex 1.67565 -0.895654 0
    endloop
  endfacet
  facet normal 0 0 -1
    outer loop
      vertex 1.47118 0.292635 0
      vertex 1.86349 0.370671 0
      vertex 1.49278 0.147025 0
    endloop
  endfacet
  facet normal 0 0 -1
    outer loop
      vertex 1.32288 -0.707094 0
      vertex 1.67565 -0.895654 0
      vertex 1.57979 -1.05558 0
    endloop
  endfacet
  facet normal -0 0 -1
    outer loop
      vertex 1.86349 0.370671 0
      vertex 1.47118 0.292635 0
      vertex 1.81819 0.55154 0
    endloop
  endfacet
  facet normal 0 0 -1
    outer loop
      vertex 1.43541 0.435427 0
      vertex 1.81819 0.55154 0
      vertex 1.47118 0.292635 0
    endloop
  endfacet
  facet normal 0 0 -1
    outer loop
      vertex 1.89085 -0.186232 0
      vertex 1.49278 -0.147025 0
      vertex 1.5 0 0
    endloop
  endfacet
  facet normal 0 0 -1
    outer loop
      vertex 1.86349 -0.370671 0
      vertex 1.47118 -0.292635 0
      vertex 1.49278 -0.147025 0
    endloop
  endfacet
  facet normal 0 0 -1
    outer loop
      vertex 1.2472 -0.833355 0
      vertex 1.57979 -1.05558 0
      vertex 1.46872 -1.20535 0
    endloop
  endfacet
  facet normal 0 0 -1
    outer loop
      vertex 1.81819 -0.55154 0
      vertex 1.43541 -0.435427 0
      vertex 1.47118 -0.292635 0
    endloop
  endfacet
  facet normal 0 0 -1
    outer loop
      vertex 1.75537 -0.727098 0
      vertex 1.38582 -0.574024 0
      vertex 1.43541 -0.435427 0
    endloop
  endfacet
  facet normal 0 0 -1
    outer loop
      vertex 1.15952 -0.95159 0
      vertex 1.46872 -1.20535 0
      vertex 1.3435 -1.3435 0
    endloop
  endfacet
  facet normal 0 0 -1
    outer loop
      vertex 1.67565 -0.895654 0
      vertex 1.32288 -0.707094 0
      vertex 1.38582 -0.574024 0
    endloop
  endfacet
  facet normal 0 0 -1
    outer loop
      vertex 1.57979 -1.05558 0
      vertex 1.2472 -0.833355 0
      vertex 1.32288 -0.707094 0
    endloop
  endfacet
  facet normal 0 0 -1
    outer loop
      vertex 1.06066 -1.06066 0
      vertex 1.3435 -1.3435 0
      vertex 1.20535 -1.46872 0
    endloop
  endfacet
  facet normal 0 0 -1
    outer loop
      vertex 1.46872 -1.20535 0
      vertex 1.15952 -0.95159 0
      vertex 1.2472 -0.833355 0
    endloop
  endfacet
  facet normal 0 0 -1
    outer loop
      vertex 1.3435 -1.3435 0
      vertex 1.06066 -1.06066 0
      vertex 1.15952 -0.95159 0
    endloop
  endfacet
  facet normal 0 0 -1
    outer loop
      vertex 0.95159 -1.15952 0
      vertex 1.20535 -1.46872 0
      vertex 1.05558 -1.57979 0
    endloop
  endfacet
  facet normal 0 0 -1
    outer loop
      vertex 1.20535 -1.46872 0
      vertex 0.95159 -1.15952 0
      vertex 1.06066 -1.06066 0
    endloop
  endfacet
  facet normal 0 0 -1
    outer loop
      vertex 0.833355 -1.2472 0
      vertex 1.05558 -1.57979 0
      vertex 0.895654 -1.67565 0
    endloop
  endfacet
  facet normal 0 0 -1
    outer loop
      vertex 1.05558 -1.57979 0
      vertex 0.833355 -1.2472 0
      vertex 0.95159 -1.15952 0
    endloop
  endfacet
  facet normal 0 0 -1
    outer loop
      vertex 0.707094 -1.32288 0
      vertex 0.895654 -1.67565 0
      vertex 0.727098 -1.75537 0
    endloop
  endfacet
  facet normal 0 0 -1
    outer loop
      vertex 0.895654 -1.67565 0
      vertex 0.707094 -1.32288 0
      vertex 0.833355 -1.2472 0
    endloop
  endfacet
  facet normal 0 0 -1
    outer loop
      vertex 0.727098 -1.75537 0
      vertex 0.574024 -1.38582 0
      vertex 0.707094 -1.32288 0
    endloop
  endfacet
  facet normal 0 0 -1
    outer loop
      vertex 0.55154 -1.81819 0
      vertex 0.574024 -1.38582 0
      vertex 0.727098 -1.75537 0
    endloop
  endfacet
  facet normal 0 0 -1
    outer loop
      vertex 0.55154 -1.81819 0
      vertex 0.435427 -1.43541 0
      vertex 0.574024 -1.38582 0
    endloop
  endfacet
  facet normal 0 0 -1
    outer loop
      vertex 0.370671 -1.86349 0
      vertex 0.435427 -1.43541 0
      vertex 0.55154 -1.81819 0
    endloop
  endfacet
  facet normal 0 0 -1
    outer loop
      vertex 0.370671 -1.86349 0
      vertex 0.292635 -1.47118 0
      vertex 0.435427 -1.43541 0
    endloop
  endfacet
  facet normal 0 0 -1
    outer loop
      vertex 0.186232 -1.89085 0
      vertex 0.292635 -1.47118 0
      vertex 0.370671 -1.86349 0
    endloop
  endfacet
  facet normal 0 0 -1
    outer loop
      vertex 0.186232 -1.89085 0
      vertex 0.147025 -1.49278 0
      vertex 0.292635 -1.47118 0
    endloop
  endfacet
  facet normal 0 0 -1
    outer loop
      vertex 0 -1.9 0
      vertex 0.147025 -1.49278 0
      vertex 0.186232 -1.89085 0
    endloop
  endfacet
  facet normal 0 0 -1
    outer loop
      vertex 0 -1.9 0
      vertex 0 -1.5 0
      vertex 0.147025 -1.49278 0
    endloop
  endfacet
  facet normal 0 0 -1
    outer loop
      vertex 0 -1.9 0
      vertex -0.147025 -1.49278 0
      vertex 0 -1.5 0
    endloop
  endfacet
  facet normal 0 0 -1
    outer loop
      vertex -0.186232 -1.89085 0
      vertex -0.147025 -1.49278 0
      vertex 0 -1.9 0
    endloop
  endfacet
  facet normal 0 0 -1
    outer loop
      vertex -0.186232 -1.89085 0
      vertex -0.292635 -1.47118 0
      vertex -0.147025 -1.49278 0
    endloop
  endfacet
  facet normal 0 0 -1
    outer loop
      vertex -0.370671 -1.86349 0
      vertex -0.292635 -1.47118 0
      vertex -0.186232 -1.89085 0
    endloop
  endfacet
  facet normal 0 0 -1
    outer loop
      vertex -0.370671 -1.86349 0
      vertex -0.435427 -1.43541 0
      vertex -0.292635 -1.47118 0
    endloop
  endfacet
  facet normal 0 0 -1
    outer loop
      vertex -0.55154 -1.81819 0
      vertex -0.435427 -1.43541 0
      vertex -0.370671 -1.86349 0
    endloop
  endfacet
  facet normal 0 0 -1
    outer loop
      vertex -0.55154 -1.81819 0
      vertex -0.574024 -1.38582 0
      vertex -0.435427 -1.43541 0
    endloop
  endfacet
  facet normal 0 0 -1
    outer loop
      vertex -0.727098 -1.75537 0
      vertex -0.574024 -1.38582 0
      vertex -0.55154 -1.81819 0
    endloop
  endfacet
  facet normal -0 0 -1
    outer loop
      vertex -0.574024 -1.38582 0
      vertex -0.727098 -1.75537 0
      vertex -0.707094 -1.32288 0
    endloop
  endfacet
  facet normal 0 0 -1
    outer loop
      vertex -0.895654 -1.67565 0
      vertex -0.707094 -1.32288 0
      vertex -0.727098 -1.75537 0
    endloop
  endfacet
  facet normal -0 0 -1
    outer loop
      vertex -0.707094 -1.32288 0
      vertex -0.895654 -1.67565 0
      vertex -0.833355 -1.2472 0
    endloop
  endfacet
  facet normal 0 0 -1
    outer loop
      vertex -1.05558 -1.57979 0
      vertex -0.833355 -1.2472 0
      vertex -0.895654 -1.67565 0
    endloop
  endfacet
  facet normal -0 0 -1
    outer loop
      vertex -0.833355 -1.2472 0
      vertex -1.05558 -1.57979 0
      vertex -0.95159 -1.15952 0
    endloop
  endfacet
  facet normal 0 0 -1
    outer loop
      vertex -1.20535 -1.46872 0
      vertex -0.95159 -1.15952 0
      vertex -1.05558 -1.57979 0
    endloop
  endfacet
  facet normal -0 0 -1
    outer loop
      vertex -0.95159 -1.15952 0
      vertex -1.20535 -1.46872 0
      vertex -1.06066 -1.06066 0
    endloop
  endfacet
  facet normal 0 0 -1
    outer loop
      vertex -1.3435 -1.3435 0
      vertex -1.06066 -1.06066 0
      vertex -1.20535 -1.46872 0
    endloop
  endfacet
  facet normal -0 0 -1
    outer loop
      vertex -1.06066 -1.06066 0
      vertex -1.3435 -1.3435 0
      vertex -1.15952 -0.95159 0
    endloop
  endfacet
  facet normal 0 0 -1
    outer loop
      vertex -1.46872 -1.20535 0
      vertex -1.15952 -0.95159 0
      vertex -1.3435 -1.3435 0
    endloop
  endfacet
  facet normal -0 0 -1
    outer loop
      vertex -1.15952 -0.95159 0
      vertex -1.46872 -1.20535 0
      vertex -1.2472 -0.833355 0
    endloop
  endfacet
  facet normal 0 0 -1
    outer loop
      vertex -1.57979 -1.05558 0
      vertex -1.2472 -0.833355 0
      vertex -1.46872 -1.20535 0
    endloop
  endfacet
  facet normal -0 0 -1
    outer loop
      vertex -1.2472 -0.833355 0
      vertex -1.57979 -1.05558 0
      vertex -1.32288 -0.707094 0
    endloop
  endfacet
  facet normal 0 0 -1
    outer loop
      vertex -1.67565 -0.895654 0
      vertex -1.32288 -0.707094 0
      vertex -1.57979 -1.05558 0
    endloop
  endfacet
  facet normal -0 0 -1
    outer loop
      vertex -1.32288 -0.707094 0
      vertex -1.67565 -0.895654 0
      vertex -1.38582 -0.574024 0
    endloop
  endfacet
  facet normal 0 0 -1
    outer loop
      vertex -1.75537 -0.727098 0
      vertex -1.38582 -0.574024 0
      vertex -1.67565 -0.895654 0
    endloop
  endfacet
  facet normal -0 0 -1
    outer loop
      vertex -1.38582 -0.574024 0
      vertex -1.75537 -0.727098 0
      vertex -1.43541 -0.435427 0
    endloop
  endfacet
  facet normal 0 0 -1
    outer loop
      vertex -1.81819 -0.55154 0
      vertex -1.43541 -0.435427 0
      vertex -1.75537 -0.727098 0
    endloop
  endfacet
  facet normal -0 0 -1
    outer loop
      vertex 1.81819 0.55154 0
      vertex 1.43541 0.435427 0
      vertex 1.75537 0.727098 0
    endloop
  endfacet
  facet normal 0 0 -1
    outer loop
      vertex 1.38582 0.574024 0
      vertex 1.75537 0.727098 0
      vertex 1.43541 0.435427 0
    endloop
  endfacet
  facet normal -0 0 -1
    outer loop
      vertex 1.75537 0.727098 0
      vertex 1.38582 0.574024 0
      vertex 1.67565 0.895654 0
    endloop
  endfacet
  facet normal 0 0 -1
    outer loop
      vertex 1.32288 0.707094 0
      vertex 1.67565 0.895654 0
      vertex 1.38582 0.574024 0
    endloop
  endfacet
  facet normal -0 0 -1
    outer loop
      vertex 1.67565 0.895654 0
      vertex 1.32288 0.707094 0
      vertex 1.57979 1.05558 0
    endloop
  endfacet
  facet normal 0 0 -1
    outer loop
      vertex 1.2472 0.833355 0
      vertex 1.57979 1.05558 0
      vertex 1.32288 0.707094 0
    endloop
  endfacet
  facet normal -0 0 -1
    outer loop
      vertex 1.57979 1.05558 0
      vertex 1.2472 0.833355 0
      vertex 1.46872 1.20535 0
    endloop
  endfacet
  facet normal 0 0 -1
    outer loop
      vertex 1.15952 0.95159 0
      vertex 1.46872 1.20535 0
      vertex 1.2472 0.833355 0
    endloop
  endfacet
  facet normal -0 0 -1
    outer loop
      vertex 1.46872 1.20535 0
      vertex 1.15952 0.95159 0
      vertex 1.3435 1.3435 0
    endloop
  endfacet
  facet normal 0 0 -1
    outer loop
      vertex 1.06066 1.06066 0
      vertex 1.3435 1.3435 0
      vertex 1.15952 0.95159 0
    endloop
  endfacet
  facet normal -0 0 -1
    outer loop
      vertex 1.3435 1.3435 0
      vertex 1.06066 1.06066 0
      vertex 1.20535 1.46872 0
    endloop
  endfacet
  facet normal 0 0 -1
    outer loop
      vertex 0.95159 1.15952 0
      vertex 1.20535 1.46872 0
      vertex 1.06066 1.06066 0
    endloop
  endfacet
  facet normal -0 0 -1
    outer loop
      vertex 1.20535 1.46872 0
      vertex 0.95159 1.15952 0
      vertex 1.05558 1.57979 0
    endloop
  endfacet
  facet normal 0 0 -1
    outer loop
      vertex 0.833355 1.2472 0
      vertex 1.05558 1.57979 0
      vertex 0.95159 1.15952 0
    endloop
  endfacet
  facet normal -0 0 -1
    outer loop
      vertex 1.05558 1.57979 0
      vertex 0.833355 1.2472 0
      vertex 0.895654 1.67565 0
    endloop
  endfacet
  facet normal 0 0 -1
    outer loop
      vertex 0.707094 1.32288 0
      vertex 0.895654 1.67565 0
      vertex 0.833355 1.2472 0
    endloop
  endfacet
  facet normal -0 0 -1
    outer loop
      vertex 0.895654 1.67565 0
      vertex 0.707094 1.32288 0
      vertex 0.727098 1.75537 0
    endloop
  endfacet
  facet normal 0 0 -1
    outer loop
      vertex 0.574024 1.38582 0
      vertex 0.727098 1.75537 0
      vertex 0.707094 1.32288 0
    endloop
  endfacet
  facet normal 0 0 -1
    outer loop
      vertex 0.574024 1.38582 0
      vertex 0.55154 1.81819 0
      vertex 0.727098 1.75537 0
    endloop
  endfacet
  facet normal 0 0 -1
    outer loop
      vertex 0.435427 1.43541 0
      vertex 0.55154 1.81819 0
      vertex 0.574024 1.38582 0
    endloop
  endfacet
  facet normal 0 0 -1
    outer loop
      vertex 0.435427 1.43541 0
      vertex 0.370671 1.86349 0
      vertex 0.55154 1.81819 0
    endloop
  endfacet
  facet normal 0 0 -1
    outer loop
      vertex 0.292635 1.47118 0
      vertex 0.370671 1.86349 0
      vertex 0.435427 1.43541 0
    endloop
  endfacet
  facet normal 0 0 -1
    outer loop
      vertex 0.292635 1.47118 0
      vertex 0.186232 1.89085 0
      vertex 0.370671 1.86349 0
    endloop
  endfacet
  facet normal 0 0 -1
    outer loop
      vertex 0.147025 1.49278 0
      vertex 0.186232 1.89085 0
      vertex 0.292635 1.47118 0
    endloop
  endfacet
  facet normal 0 0 -1
    outer loop
      vertex 0 1.5 0
      vertex 0.186232 1.89085 0
      vertex 0.147025 1.49278 0
    endloop
  endfacet
  facet normal 0 0 -1
    outer loop
      vertex 0 1.5 0
      vertex 0 1.9 0
      vertex 0.186232 1.89085 0
    endloop
  endfacet
  facet normal 0 0 -1
    outer loop
      vertex -0.147025 1.49278 0
      vertex 0 1.9 0
      vertex 0 1.5 0
    endloop
  endfacet
  facet normal 0 0 -1
    outer loop
      vertex -0.147025 1.49278 0
      vertex -0.186232 1.89085 0
      vertex 0 1.9 0
    endloop
  endfacet
  facet normal 0 0 -1
    outer loop
      vertex -0.292635 1.47118 0
      vertex -0.186232 1.89085 0
      vertex -0.147025 1.49278 0
    endloop
  endfacet
  facet normal 0 0 -1
    outer loop
      vertex -0.292635 1.47118 0
      vertex -0.370671 1.86349 0
      vertex -0.186232 1.89085 0
    endloop
  endfacet
  facet normal 0 0 -1
    outer loop
      vertex -0.435427 1.43541 0
      vertex -0.370671 1.86349 0
      vertex -0.292635 1.47118 0
    endloop
  endfacet
  facet normal 0 0 -1
    outer loop
      vertex -0.435427 1.43541 0
      vertex -0.55154 1.81819 0
      vertex -0.370671 1.86349 0
    endloop
  endfacet
  facet normal 0 0 -1
    outer loop
      vertex -0.574024 1.38582 0
      vertex -0.55154 1.81819 0
      vertex -0.435427 1.43541 0
    endloop
  endfacet
  facet normal 0 0 -1
    outer loop
      vertex -0.727098 1.75537 0
      vertex -0.574024 1.38582 0
      vertex -0.707094 1.32288 0
    endloop
  endfacet
  facet normal 0 0 -1
    outer loop
      vertex -0.574024 1.38582 0
      vertex -0.727098 1.75537 0
      vertex -0.55154 1.81819 0
    endloop
  endfacet
  facet normal 0 0 -1
    outer loop
      vertex -0.895654 1.67565 0
      vertex -0.707094 1.32288 0
      vertex -0.833355 1.2472 0
    endloop
  endfacet
  facet normal 0 0 -1
    outer loop
      vertex -0.707094 1.32288 0
      vertex -0.895654 1.67565 0
      vertex -0.727098 1.75537 0
    endloop
  endfacet
  facet normal 0 0 -1
    outer loop
      vertex -1.05558 1.57979 0
      vertex -0.833355 1.2472 0
      vertex -0.95159 1.15952 0
    endloop
  endfacet
  facet normal 0 0 -1
    outer loop
      vertex -0.833355 1.2472 0
      vertex -1.05558 1.57979 0
      vertex -0.895654 1.67565 0
    endloop
  endfacet
  facet normal 0 0 -1
    outer loop
      vertex -1.20535 1.46872 0
      vertex -0.95159 1.15952 0
      vertex -1.06066 1.06066 0
    endloop
  endfacet
  facet normal 0 0 -1
    outer loop
      vertex -1.3435 1.3435 0
      vertex -1.06066 1.06066 0
      vertex -1.15952 0.95159 0
    endloop
  endfacet
  facet normal 0 0 -1
    outer loop
      vertex -0.95159 1.15952 0
      vertex -1.20535 1.46872 0
      vertex -1.05558 1.57979 0
    endloop
  endfacet
  facet normal 0 0 -1
    outer loop
      vertex -1.46872 1.20535 0
      vertex -1.15952 0.95159 0
      vertex -1.2472 0.833355 0
    endloop
  endfacet
  facet normal 0 0 -1
    outer loop
      vertex -1.57979 1.05558 0
      vertex -1.2472 0.833355 0
      vertex -1.32288 0.707094 0
    endloop
  endfacet
  facet normal 0 0 -1
    outer loop
      vertex -1.06066 1.06066 0
      vertex -1.3435 1.3435 0
      vertex -1.20535 1.46872 0
    endloop
  endfacet
  facet normal 0 0 -1
    outer loop
      vertex -1.67565 0.895654 0
      vertex -1.32288 0.707094 0
      vertex -1.38582 0.574024 0
    endloop
  endfacet
  facet normal 0 0 -1
    outer loop
      vertex -1.75537 0.727098 0
      vertex -1.38582 0.574024 0
      vertex -1.43541 0.435427 0
    endloop
  endfacet
  facet normal 0 0 -1
    outer loop
      vertex -1.15952 0.95159 0
      vertex -1.46872 1.20535 0
      vertex -1.3435 1.3435 0
    endloop
  endfacet
  facet normal 0 0 -1
    outer loop
      vertex -1.81819 0.55154 0
      vertex -1.43541 0.435427 0
      vertex -1.47118 0.292635 0
    endloop
  endfacet
  facet normal 0 0 -1
    outer loop
      vertex -1.86349 0.370671 0
      vertex -1.47118 0.292635 0
      vertex -1.49278 0.147025 0
    endloop
  endfacet
  facet normal 0 0 -1
    outer loop
      vertex -1.89085 0.186232 0
      vertex -1.49278 0.147025 0
      vertex -1.5 0 0
    endloop
  endfacet
  facet normal -0 0 -1
    outer loop
      vertex -1.43541 -0.435427 0
      vertex -1.81819 -0.55154 0
      vertex -1.47118 -0.292635 0
    endloop
  endfacet
  facet normal 0 0 -1
    outer loop
      vertex -1.2472 0.833355 0
      vertex -1.57979 1.05558 0
      vertex -1.46872 1.20535 0
    endloop
  endfacet
  facet normal 0 0 -1
    outer loop
      vertex -1.86349 -0.370671 0
      vertex -1.47118 -0.292635 0
      vertex -1.81819 -0.55154 0
    endloop
  endfacet
  facet normal 0 0 -1
    outer loop
      vertex -1.32288 0.707094 0
      vertex -1.67565 0.895654 0
      vertex -1.57979 1.05558 0
    endloop
  endfacet
  facet normal -0 0 -1
    outer loop
      vertex -1.47118 -0.292635 0
      vertex -1.86349 -0.370671 0
      vertex -1.49278 -0.147025 0
    endloop
  endfacet
  facet normal 0 0 -1
    outer loop
      vertex -1.38582 0.574024 0
      vertex -1.75537 0.727098 0
      vertex -1.67565 0.895654 0
    endloop
  endfacet
  facet normal 0 0 -1
    outer loop
      vertex -1.89085 -0.186232 0
      vertex -1.49278 -0.147025 0
      vertex -1.86349 -0.370671 0
    endloop
  endfacet
  facet normal 0 0 -1
    outer loop
      vertex -1.43541 0.435427 0
      vertex -1.81819 0.55154 0
      vertex -1.75537 0.727098 0
    endloop
  endfacet
  facet normal -0 0 -1
    outer loop
      vertex -1.49278 -0.147025 0
      vertex -1.89085 -0.186232 0
      vertex -1.5 0 0
    endloop
  endfacet
  facet normal 0 0 -1
    outer loop
      vertex -1.47118 0.292635 0
      vertex -1.86349 0.370671 0
      vertex -1.81819 0.55154 0
    endloop
  endfacet
  facet normal 0 0 -1
    outer loop
      vertex -1.9 0 0
      vertex -1.5 0 0
      vertex -1.89085 -0.186232 0
    endloop
  endfacet
  facet normal 0 0 -1
    outer loop
      vertex -1.49278 0.147025 0
      vertex -1.89085 0.186232 0
      vertex -1.86349 0.370671 0
    endloop
  endfacet
  facet normal 0 0 -1
    outer loop
      vertex -1.5 0 0
      vertex -1.9 0 0
      vertex -1.89085 0.186232 0
    endloop
  endfacet
  facet normal -0.595699 -0.803208 0
    outer loop
      vertex -1.20535 -1.46872 0
      vertex -1.05558 -1.57979 8
      vertex -1.20535 -1.46872 8
    endloop
  endfacet
  facet normal -0.595699 -0.803208 -0
    outer loop
      vertex -1.05558 -1.57979 8
      vertex -1.20535 -1.46872 0
      vertex -1.05558 -1.57979 0
    endloop
  endfacet
  facet normal 0.803208 0.595699 0
    outer loop
      vertex 1.57979 1.05558 8
      vertex 1.46872 1.20535 0
      vertex 1.46872 1.20535 8
    endloop
  endfacet
  facet normal 0.803208 0.595699 0
    outer loop
      vertex 1.46872 1.20535 0
      vertex 1.57979 1.05558 8
      vertex 1.57979 1.05558 0
    endloop
  endfacet
  facet normal 0.146725 -0.989177 0
    outer loop
      vertex 0.186232 -1.89085 0
      vertex 0.370671 -1.86349 8
      vertex 0.186232 -1.89085 8
    endloop
  endfacet
  facet normal 0.146725 -0.989177 0
    outer loop
      vertex 0.370671 -1.86349 8
      vertex 0.186232 -1.89085 0
      vertex 0.370671 -1.86349 0
    endloop
  endfacet
  facet normal 0.514102 -0.857729 0
    outer loop
      vertex 0.895654 -1.67565 0
      vertex 1.05558 -1.57979 8
      vertex 0.895654 -1.67565 8
    endloop
  endfacet
  facet normal 0.514102 -0.857729 0
    outer loop
      vertex 1.05558 -1.57979 8
      vertex 0.895654 -1.67565 0
      vertex 1.05558 -1.57979 0
    endloop
  endfacet
  facet normal 0.595699 0.803208 -0
    outer loop
      vertex 1.20535 1.46872 0
      vertex 1.05558 1.57979 8
      vertex 1.20535 1.46872 8
    endloop
  endfacet
  facet normal 0.595699 0.803208 0
    outer loop
      vertex 1.05558 1.57979 8
      vertex 1.20535 1.46872 0
      vertex 1.05558 1.57979 0
    endloop
  endfacet
  facet normal 0.903988 -0.427558 0
    outer loop
      vertex 1.67565 -0.895654 8
      vertex 1.75537 -0.727098 0
      vertex 1.75537 -0.727098 8
    endloop
  endfacet
  facet normal 0.903988 -0.427558 0
    outer loop
      vertex 1.75537 -0.727098 0
      vertex 1.67565 -0.895654 8
      vertex 1.67565 -0.895654 0
    endloop
  endfacet
  facet normal -0.595699 0.803208 0
    outer loop
      vertex -1.05558 1.57979 0
      vertex -1.20535 1.46872 8
      vertex -1.05558 1.57979 8
    endloop
  endfacet
  facet normal -0.595699 0.803208 0
    outer loop
      vertex -1.20535 1.46872 8
      vertex -1.05558 1.57979 0
      vertex -1.20535 1.46872 0
    endloop
  endfacet
  facet normal -0.671562 0.740948 0
    outer loop
      vertex -1.20535 1.46872 0
      vertex -1.3435 1.3435 8
      vertex -1.20535 1.46872 8
    endloop
  endfacet
  facet normal -0.671562 0.740948 0
    outer loop
      vertex -1.3435 1.3435 8
      vertex -1.20535 1.46872 0
      vertex -1.3435 1.3435 0
    endloop
  endfacet
  facet normal -0.242984 0.97003 0
    outer loop
      vertex -0.370671 1.86349 0
      vertex -0.55154 1.81819 8
      vertex -0.370671 1.86349 8
    endloop
  endfacet
  facet normal -0.242984 0.97003 0
    outer loop
      vertex -0.55154 1.81819 8
      vertex -0.370671 1.86349 0
      vertex -0.55154 1.81819 0
    endloop
  endfacet
  facet normal -0.998795 -0.0490708 0
    outer loop
      vertex -1.89085 -0.186232 0
      vertex -1.9 0 8
      vertex -1.9 0 0
    endloop
  endfacet
  facet normal -0.998795 -0.0490708 0
    outer loop
      vertex -1.9 0 8
      vertex -1.89085 -0.186232 0
      vertex -1.89085 -0.186232 8
    endloop
  endfacet
  facet normal -0.903988 -0.427558 0
    outer loop
      vertex -1.67565 -0.895654 0
      vertex -1.75537 -0.727098 8
      vertex -1.75537 -0.727098 0
    endloop
  endfacet
  facet normal -0.903988 -0.427558 0
    outer loop
      vertex -1.75537 -0.727098 8
      vertex -1.67565 -0.895654 0
      vertex -1.67565 -0.895654 8
    endloop
  endfacet
  facet normal 0.941546 0.336885 0
    outer loop
      vertex 1.81819 0.55154 8
      vertex 1.75537 0.727098 0
      vertex 1.75537 0.727098 8
    endloop
  endfacet
  facet normal 0.941546 0.336885 0
    outer loop
      vertex 1.75537 0.727098 0
      vertex 1.81819 0.55154 8
      vertex 1.81819 0.55154 0
    endloop
  endfacet
  facet normal 0.857729 0.514102 0
    outer loop
      vertex 1.67565 0.895654 8
      vertex 1.57979 1.05558 0
      vertex 1.57979 1.05558 8
    endloop
  endfacet
  facet normal 0.857729 0.514102 0
    outer loop
      vertex 1.57979 1.05558 0
      vertex 1.67565 0.895654 8
      vertex 1.67565 0.895654 0
    endloop
  endfacet
  facet normal -0.0490708 0.998795 0
    outer loop
      vertex 0 1.9 0
      vertex -0.186232 1.89085 8
      vertex 0 1.9 8
    endloop
  endfacet
  facet normal -0.0490708 0.998795 0
    outer loop
      vertex -0.186232 1.89085 8
      vertex 0 1.9 0
      vertex -0.186232 1.89085 0
    endloop
  endfacet
  facet normal -0.97003 0.242984 0
    outer loop
      vertex -1.86349 0.370671 0
      vertex -1.81819 0.55154 8
      vertex -1.81819 0.55154 0
    endloop
  endfacet
  facet normal -0.97003 0.242984 0
    outer loop
      vertex -1.81819 0.55154 8
      vertex -1.86349 0.370671 0
      vertex -1.86349 0.370671 8
    endloop
  endfacet
  facet normal -0.740948 0.671562 0
    outer loop
      vertex -1.46872 1.20535 0
      vertex -1.3435 1.3435 8
      vertex -1.3435 1.3435 0
    endloop
  endfacet
  facet normal -0.740948 0.671562 0
    outer loop
      vertex -1.3435 1.3435 8
      vertex -1.46872 1.20535 0
      vertex -1.46872 1.20535 8
    endloop
  endfacet
  facet normal 0.427558 -0.903988 0
    outer loop
      vertex 0.727098 -1.75537 0
      vertex 0.895654 -1.67565 8
      vertex 0.727098 -1.75537 8
    endloop
  endfacet
  facet normal 0.427558 -0.903988 0
    outer loop
      vertex 0.895654 -1.67565 8
      vertex 0.727098 -1.75537 0
      vertex 0.895654 -1.67565 0
    endloop
  endfacet
  facet normal 0.427558 0.903988 -0
    outer loop
      vertex 0.895654 1.67565 0
      vertex 0.727098 1.75537 8
      vertex 0.895654 1.67565 8
    endloop
  endfacet
  facet normal 0.427558 0.903988 0
    outer loop
      vertex 0.727098 1.75537 8
      vertex 0.895654 1.67565 0
      vertex 0.727098 1.75537 0
    endloop
  endfacet
  facet normal -0.146725 0.989177 0
    outer loop
      vertex -0.186232 1.89085 0
      vertex -0.370671 1.86349 8
      vertex -0.186232 1.89085 8
    endloop
  endfacet
  facet normal -0.146725 0.989177 0
    outer loop
      vertex -0.370671 1.86349 8
      vertex -0.186232 1.89085 0
      vertex -0.370671 1.86349 0
    endloop
  endfacet
  facet normal 0.0490708 -0.998795 0
    outer loop
      vertex 0 -1.9 0
      vertex 0.186232 -1.89085 8
      vertex 0 -1.9 8
    endloop
  endfacet
  facet normal 0.0490708 -0.998795 0
    outer loop
      vertex 0.186232 -1.89085 8
      vertex 0 -1.9 0
      vertex 0.186232 -1.89085 0
    endloop
  endfacet
  facet normal 0.242984 -0.97003 0
    outer loop
      vertex 0.370671 -1.86349 0
      vertex 0.55154 -1.81819 8
      vertex 0.370671 -1.86349 8
    endloop
  endfacet
  facet normal 0.242984 -0.97003 0
    outer loop
      vertex 0.55154 -1.81819 8
      vertex 0.370671 -1.86349 0
      vertex 0.55154 -1.81819 0
    endloop
  endfacet
  facet normal 0.803208 -0.595699 0
    outer loop
      vertex 1.46872 -1.20535 8
      vertex 1.57979 -1.05558 0
      vertex 1.57979 -1.05558 8
    endloop
  endfacet
  facet normal 0.803208 -0.595699 0
    outer loop
      vertex 1.57979 -1.05558 0
      vertex 1.46872 -1.20535 8
      vertex 1.46872 -1.20535 0
    endloop
  endfacet
  facet normal 0.857729 -0.514102 0
    outer loop
      vertex 1.57979 -1.05558 8
      vertex 1.67565 -0.895654 0
      vertex 1.67565 -0.895654 8
    endloop
  endfacet
  facet normal 0.857729 -0.514102 0
    outer loop
      vertex 1.67565 -0.895654 0
      vertex 1.57979 -1.05558 8
      vertex 1.57979 -1.05558 0
    endloop
  endfacet
  facet normal 0.514102 0.857729 -0
    outer loop
      vertex 1.05558 1.57979 0
      vertex 0.895654 1.67565 8
      vertex 1.05558 1.57979 8
    endloop
  endfacet
  facet normal 0.514102 0.857729 0
    outer loop
      vertex 0.895654 1.67565 8
      vertex 1.05558 1.57979 0
      vertex 0.895654 1.67565 0
    endloop
  endfacet
  facet normal -0.146725 -0.989177 0
    outer loop
      vertex -0.370671 -1.86349 0
      vertex -0.186232 -1.89085 8
      vertex -0.370671 -1.86349 8
    endloop
  endfacet
  facet normal -0.146725 -0.989177 -0
    outer loop
      vertex -0.186232 -1.89085 8
      vertex -0.370671 -1.86349 0
      vertex -0.186232 -1.89085 0
    endloop
  endfacet
  facet normal -0.857729 -0.514102 0
    outer loop
      vertex -1.57979 -1.05558 0
      vertex -1.67565 -0.895654 8
      vertex -1.67565 -0.895654 0
    endloop
  endfacet
  facet normal -0.857729 -0.514102 0
    outer loop
      vertex -1.67565 -0.895654 8
      vertex -1.57979 -1.05558 0
      vertex -1.57979 -1.05558 8
    endloop
  endfacet
  facet normal 0.671562 0.740948 -0
    outer loop
      vertex 1.3435 1.3435 0
      vertex 1.20535 1.46872 8
      vertex 1.3435 1.3435 8
    endloop
  endfacet
  facet normal 0.671562 0.740948 0
    outer loop
      vertex 1.20535 1.46872 8
      vertex 1.3435 1.3435 0
      vertex 1.20535 1.46872 0
    endloop
  endfacet
  facet normal -0.903988 0.427558 0
    outer loop
      vertex -1.75537 0.727098 0
      vertex -1.67565 0.895654 8
      vertex -1.67565 0.895654 0
    endloop
  endfacet
  facet normal -0.903988 0.427558 0
    outer loop
      vertex -1.67565 0.895654 8
      vertex -1.75537 0.727098 0
      vertex -1.75537 0.727098 8
    endloop
  endfacet
  facet normal -0.941546 0.336885 0
    outer loop
      vertex -1.81819 0.55154 0
      vertex -1.75537 0.727098 8
      vertex -1.75537 0.727098 0
    endloop
  endfacet
  facet normal -0.941546 0.336885 0
    outer loop
      vertex -1.75537 0.727098 8
      vertex -1.81819 0.55154 0
      vertex -1.81819 0.55154 8
    endloop
  endfacet
  facet normal -0.740948 -0.671562 0
    outer loop
      vertex -1.3435 -1.3435 0
      vertex -1.46872 -1.20535 8
      vertex -1.46872 -1.20535 0
    endloop
  endfacet
  facet normal -0.740948 -0.671562 0
    outer loop
      vertex -1.46872 -1.20535 8
      vertex -1.3435 -1.3435 0
      vertex -1.3435 -1.3435 8
    endloop
  endfacet
  facet normal -0.427558 -0.903988 0
    outer loop
      vertex -0.895654 -1.67565 0
      vertex -0.727098 -1.75537 8
      vertex -0.895654 -1.67565 8
    endloop
  endfacet
  facet normal -0.427558 -0.903988 -0
    outer loop
      vertex -0.727098 -1.75537 8
      vertex -0.895654 -1.67565 0
      vertex -0.727098 -1.75537 0
    endloop
  endfacet
  facet normal -0.941546 -0.336885 0
    outer loop
      vertex -1.75537 -0.727098 0
      vertex -1.81819 -0.55154 8
      vertex -1.81819 -0.55154 0
    endloop
  endfacet
  facet normal -0.941546 -0.336885 0
    outer loop
      vertex -1.81819 -0.55154 8
      vertex -1.75537 -0.727098 0
      vertex -1.75537 -0.727098 8
    endloop
  endfacet
  facet normal -0.514102 -0.857729 0
    outer loop
      vertex -1.05558 -1.57979 0
      vertex -0.895654 -1.67565 8
      vertex -1.05558 -1.57979 8
    endloop
  endfacet
  facet normal -0.514102 -0.857729 -0
    outer loop
      vertex -0.895654 -1.67565 8
      vertex -1.05558 -1.57979 0
      vertex -0.895654 -1.67565 0
    endloop
  endfacet
  facet normal 0.0490708 0.998795 -0
    outer loop
      vertex 0.186232 1.89085 0
      vertex 0 1.9 8
      vertex 0.186232 1.89085 8
    endloop
  endfacet
  facet normal 0.0490708 0.998795 0
    outer loop
      vertex 0 1.9 8
      vertex 0.186232 1.89085 0
      vertex 0 1.9 0
    endloop
  endfacet
  facet normal 0.671562 -0.740948 0
    outer loop
      vertex 1.20535 -1.46872 0
      vertex 1.3435 -1.3435 8
      vertex 1.20535 -1.46872 8
    endloop
  endfacet
  facet normal 0.671562 -0.740948 0
    outer loop
      vertex 1.3435 -1.3435 8
      vertex 1.20535 -1.46872 0
      vertex 1.3435 -1.3435 0
    endloop
  endfacet
  facet normal 0.336885 0.941546 -0
    outer loop
      vertex 0.727098 1.75537 0
      vertex 0.55154 1.81819 8
      vertex 0.727098 1.75537 8
    endloop
  endfacet
  facet normal 0.336885 0.941546 0
    outer loop
      vertex 0.55154 1.81819 8
      vertex 0.727098 1.75537 0
      vertex 0.55154 1.81819 0
    endloop
  endfacet
  facet normal 0.146725 0.989177 -0
    outer loop
      vertex 0.370671 1.86349 0
      vertex 0.186232 1.89085 8
      vertex 0.370671 1.86349 8
    endloop
  endfacet
  facet normal 0.146725 0.989177 0
    outer loop
      vertex 0.186232 1.89085 8
      vertex 0.370671 1.86349 0
      vertex 0.186232 1.89085 0
    endloop
  endfacet
  facet normal -0.803208 -0.595699 0
    outer loop
      vertex -1.46872 -1.20535 0
      vertex -1.57979 -1.05558 8
      vertex -1.57979 -1.05558 0
    endloop
  endfacet
  facet normal -0.803208 -0.595699 0
    outer loop
      vertex -1.57979 -1.05558 8
      vertex -1.46872 -1.20535 0
      vertex -1.46872 -1.20535 8
    endloop
  endfacet
  facet normal -0.989177 -0.146725 0
    outer loop
      vertex -1.86349 -0.370671 0
      vertex -1.89085 -0.186232 8
      vertex -1.89085 -0.186232 0
    endloop
  endfacet
  facet normal -0.989177 -0.146725 0
    outer loop
      vertex -1.89085 -0.186232 8
      vertex -1.86349 -0.370671 0
      vertex -1.86349 -0.370671 8
    endloop
  endfacet
  facet normal -0.242984 -0.97003 0
    outer loop
      vertex -0.55154 -1.81819 0
      vertex -0.370671 -1.86349 8
      vertex -0.55154 -1.81819 8
    endloop
  endfacet
  facet normal -0.242984 -0.97003 -0
    outer loop
      vertex -0.370671 -1.86349 8
      vertex -0.55154 -1.81819 0
      vertex -0.370671 -1.86349 0
    endloop
  endfacet
  facet normal 0.740948 0.671562 0
    outer loop
      vertex 1.46872 1.20535 8
      vertex 1.3435 1.3435 0
      vertex 1.3435 1.3435 8
    endloop
  endfacet
  facet normal 0.740948 0.671562 0
    outer loop
      vertex 1.3435 1.3435 0
      vertex 1.46872 1.20535 8
      vertex 1.46872 1.20535 0
    endloop
  endfacet
  facet normal -0.671562 -0.740948 0
    outer loop
      vertex -1.3435 -1.3435 0
      vertex -1.20535 -1.46872 8
      vertex -1.3435 -1.3435 8
    endloop
  endfacet
  facet normal -0.671562 -0.740948 -0
    outer loop
      vertex -1.20535 -1.46872 8
      vertex -1.3435 -1.3435 0
      vertex -1.20535 -1.46872 0
    endloop
  endfacet
  facet normal -0.803208 0.595699 0
    outer loop
      vertex -1.57979 1.05558 0
      vertex -1.46872 1.20535 8
      vertex -1.46872 1.20535 0
    endloop
  endfacet
  facet normal -0.803208 0.595699 0
    outer loop
      vertex -1.46872 1.20535 8
      vertex -1.57979 1.05558 0
      vertex -1.57979 1.05558 8
    endloop
  endfacet
  facet normal -0.857729 0.514102 0
    outer loop
      vertex -1.67565 0.895654 0
      vertex -1.57979 1.05558 8
      vertex -1.57979 1.05558 0
    endloop
  endfacet
  facet normal -0.857729 0.514102 0
    outer loop
      vertex -1.57979 1.05558 8
      vertex -1.67565 0.895654 0
      vertex -1.67565 0.895654 8
    endloop
  endfacet
  facet normal 0 0 1
    outer loop
      vertex 1.5 0 8
      vertex 1.9 0 8
      vertex 1.89085 0.186232 8
    endloop
  endfacet
  facet normal 0 0 1
    outer loop
      vertex 1.49278 0.147025 8
      vertex 1.89085 0.186232 8
      vertex 1.86349 0.370671 8
    endloop
  endfacet
  facet normal 0 0 1
    outer loop
      vertex 1.9 0 8
      vertex 1.5 0 8
      vertex 1.89085 -0.186232 8
    endloop
  endfacet
  facet normal 0 0 1
    outer loop
      vertex 1.47118 0.292635 8
      vertex 1.86349 0.370671 8
      vertex 1.81819 0.55154 8
    endloop
  endfacet
  facet normal -0 0 1
    outer loop
      vertex 1.49278 -0.147025 8
      vertex 1.89085 -0.186232 8
      vertex 1.5 0 8
    endloop
  endfacet
  facet normal 0 0 1
    outer loop
      vertex 1.43541 0.435427 8
      vertex 1.81819 0.55154 8
      vertex 1.75537 0.727098 8
    endloop
  endfacet
  facet normal 0 0 1
    outer loop
      vertex 1.89085 -0.186232 8
      vertex 1.49278 -0.147025 8
      vertex 1.86349 -0.370671 8
    endloop
  endfacet
  facet normal 0 0 1
    outer loop
      vertex 1.38582 0.574024 8
      vertex 1.75537 0.727098 8
      vertex 1.67565 0.895654 8
    endloop
  endfacet
  facet normal -0 0 1
    outer loop
      vertex 1.47118 -0.292635 8
      vertex 1.86349 -0.370671 8
      vertex 1.49278 -0.147025 8
    endloop
  endfacet
  facet normal 0 0 1
    outer loop
      vertex 1.32288 0.707094 8
      vertex 1.67565 0.895654 8
      vertex 1.57979 1.05558 8
    endloop
  endfacet
  facet normal 0 0 1
    outer loop
      vertex 1.86349 -0.370671 8
      vertex 1.47118 -0.292635 8
      vertex 1.81819 -0.55154 8
    endloop
  endfacet
  facet normal -0 0 1
    outer loop
      vertex 1.43541 -0.435427 8
      vertex 1.81819 -0.55154 8
      vertex 1.47118 -0.292635 8
    endloop
  endfacet
  facet normal 0 0 1
    outer loop
      vertex 1.89085 0.186232 8
      vertex 1.49278 0.147025 8
      vertex 1.5 0 8
    endloop
  endfacet
  facet normal 0 0 1
    outer loop
      vertex 1.86349 0.370671 8
      vertex 1.47118 0.292635 8
      vertex 1.49278 0.147025 8
    endloop
  endfacet
  facet normal 0 0 1
    outer loop
      vertex 1.2472 0.833355 8
      vertex 1.57979 1.05558 8
      vertex 1.46872 1.20535 8
    endloop
  endfacet
  facet normal 0 0 1
    outer loop
      vertex 1.81819 0.55154 8
      vertex 1.43541 0.435427 8
      vertex 1.47118 0.292635 8
    endloop
  endfacet
  facet normal 0 0 1
    outer loop
      vertex 1.75537 0.727098 8
      vertex 1.38582 0.574024 8
      vertex 1.43541 0.435427 8
    endloop
  endfacet
  facet normal 0 0 1
    outer loop
      vertex 1.15952 0.95159 8
      vertex 1.46872 1.20535 8
      vertex 1.3435 1.3435 8
    endloop
  endfacet
  facet normal 0 0 1
    outer loop
      vertex 1.67565 0.895654 8
      vertex 1.32288 0.707094 8
      vertex 1.38582 0.574024 8
    endloop
  endfacet
  facet normal 0 0 1
    outer loop
      vertex 1.57979 1.05558 8
      vertex 1.2472 0.833355 8
      vertex 1.32288 0.707094 8
    endloop
  endfacet
  facet normal 0 0 1
    outer loop
      vertex 1.06066 1.06066 8
      vertex 1.3435 1.3435 8
      vertex 1.20535 1.46872 8
    endloop
  endfacet
  facet normal 0 0 1
    outer loop
      vertex 1.46872 1.20535 8
      vertex 1.15952 0.95159 8
      vertex 1.2472 0.833355 8
    endloop
  endfacet
  facet normal 0 0 1
    outer loop
      vertex 1.3435 1.3435 8
      vertex 1.06066 1.06066 8
      vertex 1.15952 0.95159 8
    endloop
  endfacet
  facet normal 0 0 1
    outer loop
      vertex 0.95159 1.15952 8
      vertex 1.20535 1.46872 8
      vertex 1.05558 1.57979 8
    endloop
  endfacet
  facet normal 0 0 1
    outer loop
      vertex 1.20535 1.46872 8
      vertex 0.95159 1.15952 8
      vertex 1.06066 1.06066 8
    endloop
  endfacet
  facet normal 0 0 1
    outer loop
      vertex 0.833355 1.2472 8
      vertex 1.05558 1.57979 8
      vertex 0.895654 1.67565 8
    endloop
  endfacet
  facet normal 0 0 1
    outer loop
      vertex 1.05558 1.57979 8
      vertex 0.833355 1.2472 8
      vertex 0.95159 1.15952 8
    endloop
  endfacet
  facet normal 0 0 1
    outer loop
      vertex 0.707094 1.32288 8
      vertex 0.895654 1.67565 8
      vertex 0.727098 1.75537 8
    endloop
  endfacet
  facet normal 0 0 1
    outer loop
      vertex 0.895654 1.67565 8
      vertex 0.707094 1.32288 8
      vertex 0.833355 1.2472 8
    endloop
  endfacet
  facet normal 0 0 1
    outer loop
      vertex 0.727098 1.75537 8
      vertex 0.574024 1.38582 8
      vertex 0.707094 1.32288 8
    endloop
  endfacet
  facet normal 0 0 1
    outer loop
      vertex 0.55154 1.81819 8
      vertex 0.574024 1.38582 8
      vertex 0.727098 1.75537 8
    endloop
  endfacet
  facet normal 0 0 1
    outer loop
      vertex 0.55154 1.81819 8
      vertex 0.435427 1.43541 8
      vertex 0.574024 1.38582 8
    endloop
  endfacet
  facet normal 0 0 1
    outer loop
      vertex 0.370671 1.86349 8
      vertex 0.435427 1.43541 8
      vertex 0.55154 1.81819 8
    endloop
  endfacet
  facet normal 0 0 1
    outer loop
      vertex 0.370671 1.86349 8
      vertex 0.292635 1.47118 8
      vertex 0.435427 1.43541 8
    endloop
  endfacet
  facet normal 0 0 1
    outer loop
      vertex 0.186232 1.89085 8
      vertex 0.292635 1.47118 8
      vertex 0.370671 1.86349 8
    endloop
  endfacet
  facet normal 0 0 1
    outer loop
      vertex 0.186232 1.89085 8
      vertex 0.147025 1.49278 8
      vertex 0.292635 1.47118 8
    endloop
  endfacet
  facet normal 0 0 1
    outer loop
      vertex 0 1.9 8
      vertex 0.147025 1.49278 8
      vertex 0.186232 1.89085 8
    endloop
  endfacet
  facet normal 0 0 1
    outer loop
      vertex 0 1.9 8
      vertex 0 1.5 8
      vertex 0.147025 1.49278 8
    endloop
  endfacet
  facet normal 0 0 1
    outer loop
      vertex 0 1.9 8
      vertex -0.147025 1.49278 8
      vertex 0 1.5 8
    endloop
  endfacet
  facet normal -0 0 1
    outer loop
      vertex -0.186232 1.89085 8
      vertex -0.147025 1.49278 8
      vertex 0 1.9 8
    endloop
  endfacet
  facet normal 0 0 1
    outer loop
      vertex -0.186232 1.89085 8
      vertex -0.292635 1.47118 8
      vertex -0.147025 1.49278 8
    endloop
  endfacet
  facet normal -0 0 1
    outer loop
      vertex -0.370671 1.86349 8
      vertex -0.292635 1.47118 8
      vertex -0.186232 1.89085 8
    endloop
  endfacet
  facet normal 0 0 1
    outer loop
      vertex -0.370671 1.86349 8
      vertex -0.435427 1.43541 8
      vertex -0.292635 1.47118 8
    endloop
  endfacet
  facet normal -0 0 1
    outer loop
      vertex -0.55154 1.81819 8
      vertex -0.435427 1.43541 8
      vertex -0.370671 1.86349 8
    endloop
  endfacet
  facet normal 0 0 1
    outer loop
      vertex -0.55154 1.81819 8
      vertex -0.574024 1.38582 8
      vertex -0.435427 1.43541 8
    endloop
  endfacet
  facet normal -0 0 1
    outer loop
      vertex -0.727098 1.75537 8
      vertex -0.574024 1.38582 8
      vertex -0.55154 1.81819 8
    endloop
  endfacet
  facet normal 0 0 1
    outer loop
      vertex -0.574024 1.38582 8
      vertex -0.727098 1.75537 8
      vertex -0.707094 1.32288 8
    endloop
  endfacet
  facet normal -0 0 1
    outer loop
      vertex -0.895654 1.67565 8
      vertex -0.707094 1.32288 8
      vertex -0.727098 1.75537 8
    endloop
  endfacet
  facet normal 0 0 1
    outer loop
      vertex -0.707094 1.32288 8
      vertex -0.895654 1.67565 8
      vertex -0.833355 1.2472 8
    endloop
  endfacet
  facet normal -0 0 1
    outer loop
      vertex -1.05558 1.57979 8
      vertex -0.833355 1.2472 8
      vertex -0.895654 1.67565 8
    endloop
  endfacet
  facet normal 0 0 1
    outer loop
      vertex -0.833355 1.2472 8
      vertex -1.05558 1.57979 8
      vertex -0.95159 1.15952 8
    endloop
  endfacet
  facet normal -0 0 1
    outer loop
      vertex -1.20535 1.46872 8
      vertex -0.95159 1.15952 8
      vertex -1.05558 1.57979 8
    endloop
  endfacet
  facet normal 0 0 1
    outer loop
      vertex -0.95159 1.15952 8
      vertex -1.20535 1.46872 8
      vertex -1.06066 1.06066 8
    endloop
  endfacet
  facet normal -0 0 1
    outer loop
      vertex -1.3435 1.3435 8
      vertex -1.06066 1.06066 8
      vertex -1.20535 1.46872 8
    endloop
  endfacet
  facet normal 0 0 1
    outer loop
      vertex -1.06066 1.06066 8
      vertex -1.3435 1.3435 8
      vertex -1.15952 0.95159 8
    endloop
  endfacet
  facet normal -0 0 1
    outer loop
      vertex -1.46872 1.20535 8
      vertex -1.15952 0.95159 8
      vertex -1.3435 1.3435 8
    endloop
  endfacet
  facet normal 0 0 1
    outer loop
      vertex -1.15952 0.95159 8
      vertex -1.46872 1.20535 8
      vertex -1.2472 0.833355 8
    endloop
  endfacet
  facet normal -0 0 1
    outer loop
      vertex -1.57979 1.05558 8
      vertex -1.2472 0.833355 8
      vertex -1.46872 1.20535 8
    endloop
  endfacet
  facet normal 0 0 1
    outer loop
      vertex -1.2472 0.833355 8
      vertex -1.57979 1.05558 8
      vertex -1.32288 0.707094 8
    endloop
  endfacet
  facet normal -0 0 1
    outer loop
      vertex -1.67565 0.895654 8
      vertex -1.32288 0.707094 8
      vertex -1.57979 1.05558 8
    endloop
  endfacet
  facet normal 0 0 1
    outer loop
      vertex -1.32288 0.707094 8
      vertex -1.67565 0.895654 8
      vertex -1.38582 0.574024 8
    endloop
  endfacet
  facet normal -0 0 1
    outer loop
      vertex -1.75537 0.727098 8
      vertex -1.38582 0.574024 8
      vertex -1.67565 0.895654 8
    endloop
  endfacet
  facet normal 0 0 1
    outer loop
      vertex -1.38582 0.574024 8
      vertex -1.75537 0.727098 8
      vertex -1.43541 0.435427 8
    endloop
  endfacet
  facet normal -0 0 1
    outer loop
      vertex -1.81819 0.55154 8
      vertex -1.43541 0.435427 8
      vertex -1.75537 0.727098 8
    endloop
  endfacet
  facet normal 0 0 1
    outer loop
      vertex 1.81819 -0.55154 8
      vertex 1.43541 -0.435427 8
      vertex 1.75537 -0.727098 8
    endloop
  endfacet
  facet normal -0 0 1
    outer loop
      vertex 1.38582 -0.574024 8
      vertex 1.75537 -0.727098 8
      vertex 1.43541 -0.435427 8
    endloop
  endfacet
  facet normal 0 0 1
    outer loop
      vertex 1.75537 -0.727098 8
      vertex 1.38582 -0.574024 8
      vertex 1.67565 -0.895654 8
    endloop
  endfacet
  facet normal -0 0 1
    outer loop
      vertex 1.32288 -0.707094 8
      vertex 1.67565 -0.895654 8
      vertex 1.38582 -0.574024 8
    endloop
  endfacet
  facet normal 0 0 1
    outer loop
      vertex 1.67565 -0.895654 8
      vertex 1.32288 -0.707094 8
      vertex 1.57979 -1.05558 8
    endloop
  endfacet
  facet normal -0 0 1
    outer loop
      vertex 1.2472 -0.833355 8
      vertex 1.57979 -1.05558 8
      vertex 1.32288 -0.707094 8
    endloop
  endfacet
  facet normal 0 0 1
    outer loop
      vertex 1.57979 -1.05558 8
      vertex 1.2472 -0.833355 8
      vertex 1.46872 -1.20535 8
    endloop
  endfacet
  facet normal -0 0 1
    outer loop
      vertex 1.15952 -0.95159 8
      vertex 1.46872 -1.20535 8
      vertex 1.2472 -0.833355 8
    endloop
  endfacet
  facet normal 0 0 1
    outer loop
      vertex 1.46872 -1.20535 8
      vertex 1.15952 -0.95159 8
      vertex 1.3435 -1.3435 8
    endloop
  endfacet
  facet normal -0 0 1
    outer loop
      vertex 1.06066 -1.06066 8
      vertex 1.3435 -1.3435 8
      vertex 1.15952 -0.95159 8
    endloop
  endfacet
  facet normal 0 0 1
    outer loop
      vertex 1.3435 -1.3435 8
      vertex 1.06066 -1.06066 8
      vertex 1.20535 -1.46872 8
    endloop
  endfacet
  facet normal -0 0 1
    outer loop
      vertex 0.95159 -1.15952 8
      vertex 1.20535 -1.46872 8
      vertex 1.06066 -1.06066 8
    endloop
  endfacet
  facet normal 0 0 1
    outer loop
      vertex 1.20535 -1.46872 8
      vertex 0.95159 -1.15952 8
      vertex 1.05558 -1.57979 8
    endloop
  endfacet
  facet normal -0 0 1
    outer loop
      vertex 0.833355 -1.2472 8
      vertex 1.05558 -1.57979 8
      vertex 0.95159 -1.15952 8
    endloop
  endfacet
  facet normal 0 0 1
    outer loop
      vertex 1.05558 -1.57979 8
      vertex 0.833355 -1.2472 8
      vertex 0.895654 -1.67565 8
    endloop
  endfacet
  facet normal -0 0 1
    outer loop
      vertex 0.707094 -1.32288 8
      vertex 0.895654 -1.67565 8
      vertex 0.833355 -1.2472 8
    endloop
  endfacet
  facet normal 0 0 1
    outer loop
      vertex 0.895654 -1.67565 8
      vertex 0.707094 -1.32288 8
      vertex 0.727098 -1.75537 8
    endloop
  endfacet
  facet normal -0 0 1
    outer loop
      vertex 0.574024 -1.38582 8
      vertex 0.727098 -1.75537 8
      vertex 0.707094 -1.32288 8
    endloop
  endfacet
  facet normal 0 0 1
    outer loop
      vertex 0.574024 -1.38582 8
      vertex 0.55154 -1.81819 8
      vertex 0.727098 -1.75537 8
    endloop
  endfacet
  facet normal -0 0 1
    outer loop
      vertex 0.435427 -1.43541 8
      vertex 0.55154 -1.81819 8
      vertex 0.574024 -1.38582 8
    endloop
  endfacet
  facet normal 0 0 1
    outer loop
      vertex 0.435427 -1.43541 8
      vertex 0.370671 -1.86349 8
      vertex 0.55154 -1.81819 8
    endloop
  endfacet
  facet normal -0 0 1
    outer loop
      vertex 0.292635 -1.47118 8
      vertex 0.370671 -1.86349 8
      vertex 0.435427 -1.43541 8
    endloop
  endfacet
  facet normal 0 0 1
    outer loop
      vertex 0.292635 -1.47118 8
      vertex 0.186232 -1.89085 8
      vertex 0.370671 -1.86349 8
    endloop
  endfacet
  facet normal -0 0 1
    outer loop
      vertex 0.147025 -1.49278 8
      vertex 0.186232 -1.89085 8
      vertex 0.292635 -1.47118 8
    endloop
  endfacet
  facet normal -0 0 1
    outer loop
      vertex 0 -1.5 8
      vertex 0.186232 -1.89085 8
      vertex 0.147025 -1.49278 8
    endloop
  endfacet
  facet normal 0 0 1
    outer loop
      vertex 0 -1.5 8
      vertex 0 -1.9 8
      vertex 0.186232 -1.89085 8
    endloop
  endfacet
  facet normal 0 0 1
    outer loop
      vertex -0.147025 -1.49278 8
      vertex 0 -1.9 8
      vertex 0 -1.5 8
    endloop
  endfacet
  facet normal 0 0 1
    outer loop
      vertex -0.147025 -1.49278 8
      vertex -0.186232 -1.89085 8
      vertex 0 -1.9 8
    endloop
  endfacet
  facet normal 0 0 1
    outer loop
      vertex -0.292635 -1.47118 8
      vertex -0.186232 -1.89085 8
      vertex -0.147025 -1.49278 8
    endloop
  endfacet
  facet normal 0 0 1
    outer loop
      vertex -0.292635 -1.47118 8
      vertex -0.370671 -1.86349 8
      vertex -0.186232 -1.89085 8
    endloop
  endfacet
  facet normal 0 0 1
    outer loop
      vertex -0.435427 -1.43541 8
      vertex -0.370671 -1.86349 8
      vertex -0.292635 -1.47118 8
    endloop
  endfacet
  facet normal 0 0 1
    outer loop
      vertex -0.435427 -1.43541 8
      vertex -0.55154 -1.81819 8
      vertex -0.370671 -1.86349 8
    endloop
  endfacet
  facet normal 0 0 1
    outer loop
      vertex -0.574024 -1.38582 8
      vertex -0.55154 -1.81819 8
      vertex -0.435427 -1.43541 8
    endloop
  endfacet
  facet normal 0 0 1
    outer loop
      vertex -0.727098 -1.75537 8
      vertex -0.574024 -1.38582 8
      vertex -0.707094 -1.32288 8
    endloop
  endfacet
  facet normal 0 0 1
    outer loop
      vertex -0.574024 -1.38582 8
      vertex -0.727098 -1.75537 8
      vertex -0.55154 -1.81819 8
    endloop
  endfacet
  facet normal 0 0 1
    outer loop
      vertex -0.895654 -1.67565 8
      vertex -0.707094 -1.32288 8
      vertex -0.833355 -1.2472 8
    endloop
  endfacet
  facet normal 0 0 1
    outer loop
      vertex -0.707094 -1.32288 8
      vertex -0.895654 -1.67565 8
      vertex -0.727098 -1.75537 8
    endloop
  endfacet
  facet normal 0 0 1
    outer loop
      vertex -1.05558 -1.57979 8
      vertex -0.833355 -1.2472 8
      vertex -0.95159 -1.15952 8
    endloop
  endfacet
  facet normal 0 0 1
    outer loop
      vertex -0.833355 -1.2472 8
      vertex -1.05558 -1.57979 8
      vertex -0.895654 -1.67565 8
    endloop
  endfacet
  facet normal 0 0 1
    outer loop
      vertex -1.20535 -1.46872 8
      vertex -0.95159 -1.15952 8
      vertex -1.06066 -1.06066 8
    endloop
  endfacet
  facet normal 0 0 1
    outer loop
      vertex -1.3435 -1.3435 8
      vertex -1.06066 -1.06066 8
      vertex -1.15952 -0.95159 8
    endloop
  endfacet
  facet normal 0 0 1
    outer loop
      vertex -0.95159 -1.15952 8
      vertex -1.20535 -1.46872 8
      vertex -1.05558 -1.57979 8
    endloop
  endfacet
  facet normal 0 0 1
    outer loop
      vertex -1.46872 -1.20535 8
      vertex -1.15952 -0.95159 8
      vertex -1.2472 -0.833355 8
    endloop
  endfacet
  facet normal 0 0 1
    outer loop
      vertex -1.57979 -1.05558 8
      vertex -1.2472 -0.833355 8
      vertex -1.32288 -0.707094 8
    endloop
  endfacet
  facet normal 0 0 1
    outer loop
      vertex -1.06066 -1.06066 8
      vertex -1.3435 -1.3435 8
      vertex -1.20535 -1.46872 8
    endloop
  endfacet
  facet normal 0 0 1
    outer loop
      vertex -1.67565 -0.895654 8
      vertex -1.32288 -0.707094 8
      vertex -1.38582 -0.574024 8
    endloop
  endfacet
  facet normal 0 0 1
    outer loop
      vertex -1.75537 -0.727098 8
      vertex -1.38582 -0.574024 8
      vertex -1.43541 -0.435427 8
    endloop
  endfacet
  facet normal 0 0 1
    outer loop
      vertex -1.15952 -0.95159 8
      vertex -1.46872 -1.20535 8
      vertex -1.3435 -1.3435 8
    endloop
  endfacet
  facet normal 0 0 1
    outer loop
      vertex -1.81819 -0.55154 8
      vertex -1.43541 -0.435427 8
      vertex -1.47118 -0.292635 8
    endloop
  endfacet
  facet normal 0 0 1
    outer loop
      vertex -1.86349 -0.370671 8
      vertex -1.47118 -0.292635 8
      vertex -1.49278 -0.147025 8
    endloop
  endfacet
  facet normal 0 0 1
    outer loop
      vertex -1.89085 -0.186232 8
      vertex -1.49278 -0.147025 8
      vertex -1.5 0 8
    endloop
  endfacet
  facet normal 0 0 1
    outer loop
      vertex -1.43541 0.435427 8
      vertex -1.81819 0.55154 8
      vertex -1.47118 0.292635 8
    endloop
  endfacet
  facet normal 0 0 1
    outer loop
      vertex -1.2472 -0.833355 8
      vertex -1.57979 -1.05558 8
      vertex -1.46872 -1.20535 8
    endloop
  endfacet
  facet normal -0 0 1
    outer loop
      vertex -1.86349 0.370671 8
      vertex -1.47118 0.292635 8
      vertex -1.81819 0.55154 8
    endloop
  endfacet
  facet normal 0 0 1
    outer loop
      vertex -1.32288 -0.707094 8
      vertex -1.67565 -0.895654 8
      vertex -1.57979 -1.05558 8
    endloop
  endfacet
  facet normal 0 0 1
    outer loop
      vertex -1.47118 0.292635 8
      vertex -1.86349 0.370671 8
      vertex -1.49278 0.147025 8
    endloop
  endfacet
  facet normal 0 0 1
    outer loop
      vertex -1.38582 -0.574024 8
      vertex -1.75537 -0.727098 8
      vertex -1.67565 -0.895654 8
    endloop
  endfacet
  facet normal -0 0 1
    outer loop
      vertex -1.89085 0.186232 8
      vertex -1.49278 0.147025 8
      vertex -1.86349 0.370671 8
    endloop
  endfacet
  facet normal 0 0 1
    outer loop
      vertex -1.43541 -0.435427 8
      vertex -1.81819 -0.55154 8
      vertex -1.75537 -0.727098 8
    endloop
  endfacet
  facet normal 0 0 1
    outer loop
      vertex -1.49278 0.147025 8
      vertex -1.89085 0.186232 8
      vertex -1.5 0 8
    endloop
  endfacet
  facet normal 0 0 1
    outer loop
      vertex -1.47118 -0.292635 8
      vertex -1.86349 -0.370671 8
      vertex -1.81819 -0.55154 8
    endloop
  endfacet
  facet normal 0 0 1
    outer loop
      vertex -1.9 0 8
      vertex -1.5 0 8
      vertex -1.89085 0.186232 8
    endloop
  endfacet
  facet normal 0 0 1
    outer loop
      vertex -1.49278 -0.147025 8
      vertex -1.89085 -0.186232 8
      vertex -1.86349 -0.370671 8
    endloop
  endfacet
  facet normal 0 0 1
    outer loop
      vertex -1.5 0 8
      vertex -1.9 0 8
      vertex -1.89085 -0.186232 8
    endloop
  endfacet
  facet normal -0.0490708 -0.998795 0
    outer loop
      vertex -0.186232 -1.89085 0
      vertex 0 -1.9 8
      vertex -0.186232 -1.89085 8
    endloop
  endfacet
  facet normal -0.0490708 -0.998795 -0
    outer loop
      vertex 0 -1.9 8
      vertex -0.186232 -1.89085 0
      vertex 0 -1.9 0
    endloop
  endfacet
  facet normal -0.998795 0.0490708 0
    outer loop
      vertex -1.9 0 0
      vertex -1.89085 0.186232 8
      vertex -1.89085 0.186232 0
    endloop
  endfacet
  facet normal -0.998795 0.0490708 0
    outer loop
      vertex -1.89085 0.186232 8
      vertex -1.9 0 0
      vertex -1.9 0 8
    endloop
  endfacet
  facet normal 0.740948 -0.671562 0
    outer loop
      vertex 1.3435 -1.3435 8
      vertex 1.46872 -1.20535 0
      vertex 1.46872 -1.20535 8
    endloop
  endfacet
  facet normal 0.740948 -0.671562 0
    outer loop
      vertex 1.46872 -1.20535 0
      vertex 1.3435 -1.3435 8
      vertex 1.3435 -1.3435 0
    endloop
  endfacet
  facet normal -0.989176 -0.146734 0
    outer loop
      vertex 1.49278 0.147025 0
      vertex 1.47118 0.292635 8
      vertex 1.47118 0.292635 0
    endloop
  endfacet
  facet normal -0.989176 -0.146734 0
    outer loop
      vertex 1.47118 0.292635 8
      vertex 1.49278 0.147025 0
      vertex 1.49278 0.147025 8
    endloop
  endfacet
  facet normal -0.998795 -0.0490694 0
    outer loop
      vertex 1.5 0 0
      vertex 1.49278 0.147025 8
      vertex 1.49278 0.147025 0
    endloop
  endfacet
  facet normal -0.998795 -0.0490694 0
    outer loop
      vertex 1.49278 0.147025 8
      vertex 1.5 0 0
      vertex 1.5 0 8
    endloop
  endfacet
  facet normal -0.970033 -0.242975 0
    outer loop
      vertex 1.47118 0.292635 0
      vertex 1.43541 0.435427 8
      vertex 1.43541 0.435427 0
    endloop
  endfacet
  facet normal -0.970033 -0.242975 0
    outer loop
      vertex 1.43541 0.435427 8
      vertex 1.47118 0.292635 0
      vertex 1.47118 0.292635 8
    endloop
  endfacet
  facet normal -0.427552 0.903991 0
    outer loop
      vertex 0.707094 -1.32288 0
      vertex 0.574024 -1.38582 8
      vertex 0.707094 -1.32288 8
    endloop
  endfacet
  facet normal -0.427552 0.903991 0
    outer loop
      vertex 0.574024 -1.38582 8
      vertex 0.707094 -1.32288 0
      vertex 0.574024 -1.38582 0
    endloop
  endfacet
  facet normal 0.595698 -0.803209 0
    outer loop
      vertex -0.95159 1.15952 0
      vertex -0.833355 1.2472 8
      vertex -0.95159 1.15952 8
    endloop
  endfacet
  facet normal 0.595698 -0.803209 0
    outer loop
      vertex -0.833355 1.2472 8
      vertex -0.95159 1.15952 0
      vertex -0.833355 1.2472 0
    endloop
  endfacet
  facet normal -0.242975 -0.970033 0
    outer loop
      vertex 0.292635 1.47118 0
      vertex 0.435427 1.43541 8
      vertex 0.292635 1.47118 8
    endloop
  endfacet
  facet normal -0.242975 -0.970033 -0
    outer loop
      vertex 0.435427 1.43541 8
      vertex 0.292635 1.47118 0
      vertex 0.435427 1.43541 0
    endloop
  endfacet
  facet normal 0.903991 -0.427552 0
    outer loop
      vertex -1.38582 0.574024 8
      vertex -1.32288 0.707094 0
      vertex -1.32288 0.707094 8
    endloop
  endfacet
  facet normal 0.903991 -0.427552 0
    outer loop
      vertex -1.32288 0.707094 0
      vertex -1.38582 0.574024 8
      vertex -1.38582 0.574024 0
    endloop
  endfacet
  facet normal 0.970033 -0.242975 0
    outer loop
      vertex -1.47118 0.292635 8
      vertex -1.43541 0.435427 0
      vertex -1.43541 0.435427 8
    endloop
  endfacet
  facet normal 0.970033 -0.242975 0
    outer loop
      vertex -1.43541 0.435427 0
      vertex -1.47118 0.292635 8
      vertex -1.47118 0.292635 0
    endloop
  endfacet
  facet normal -0.514103 0.857728 0
    outer loop
      vertex 0.833355 -1.2472 0
      vertex 0.707094 -1.32288 8
      vertex 0.833355 -1.2472 8
    endloop
  endfacet
  facet normal -0.514103 0.857728 0
    outer loop
      vertex 0.707094 -1.32288 8
      vertex 0.833355 -1.2472 0
      vertex 0.707094 -1.32288 0
    endloop
  endfacet
  facet normal -0.242975 0.970033 0
    outer loop
      vertex 0.435427 -1.43541 0
      vertex 0.292635 -1.47118 8
      vertex 0.435427 -1.43541 8
    endloop
  endfacet
  facet normal -0.242975 0.970033 0
    outer loop
      vertex 0.292635 -1.47118 8
      vertex 0.435427 -1.43541 0
      vertex 0.292635 -1.47118 0
    endloop
  endfacet
  facet normal -0.0490694 -0.998795 0
    outer loop
      vertex 0 1.5 0
      vertex 0.147025 1.49278 8
      vertex 0 1.5 8
    endloop
  endfacet
  facet normal -0.0490694 -0.998795 -0
    outer loop
      vertex 0.147025 1.49278 8
      vertex 0 1.5 0
      vertex 0.147025 1.49278 0
    endloop
  endfacet
  facet normal -0.146734 -0.989176 0
    outer loop
      vertex 0.147025 1.49278 0
      vertex 0.292635 1.47118 8
      vertex 0.147025 1.49278 8
    endloop
  endfacet
  facet normal -0.146734 -0.989176 -0
    outer loop
      vertex 0.292635 1.47118 8
      vertex 0.147025 1.49278 0
      vertex 0.292635 1.47118 0
    endloop
  endfacet
  facet normal -0.427552 -0.903991 0
    outer loop
      vertex 0.574024 1.38582 0
      vertex 0.707094 1.32288 8
      vertex 0.574024 1.38582 8
    endloop
  endfacet
  facet normal -0.427552 -0.903991 -0
    outer loop
      vertex 0.707094 1.32288 8
      vertex 0.574024 1.38582 0
      vertex 0.707094 1.32288 0
    endloop
  endfacet
  facet normal -0.146734 0.989176 0
    outer loop
      vertex 0.292635 -1.47118 0
      vertex 0.147025 -1.49278 8
      vertex 0.292635 -1.47118 8
    endloop
  endfacet
  facet normal -0.146734 0.989176 0
    outer loop
      vertex 0.147025 -1.49278 8
      vertex 0.292635 -1.47118 0
      vertex 0.147025 -1.49278 0
    endloop
  endfacet
  facet normal -0.803209 0.595698 0
    outer loop
      vertex 1.15952 -0.95159 0
      vertex 1.2472 -0.833355 8
      vertex 1.2472 -0.833355 0
    endloop
  endfacet
  facet normal -0.803209 0.595698 0
    outer loop
      vertex 1.2472 -0.833355 8
      vertex 1.15952 -0.95159 0
      vertex 1.15952 -0.95159 8
    endloop
  endfacet
  facet normal 0.740948 0.671562 0
    outer loop
      vertex -1.06066 -1.06066 8
      vertex -1.15952 -0.95159 0
      vertex -1.15952 -0.95159 8
    endloop
  endfacet
  facet normal 0.740948 0.671562 0
    outer loop
      vertex -1.15952 -0.95159 0
      vertex -1.06066 -1.06066 8
      vertex -1.06066 -1.06066 0
    endloop
  endfacet
  facet normal 0.514103 -0.857728 0
    outer loop
      vertex -0.833355 1.2472 0
      vertex -0.707094 1.32288 8
      vertex -0.833355 1.2472 8
    endloop
  endfacet
  facet normal 0.514103 -0.857728 0
    outer loop
      vertex -0.707094 1.32288 8
      vertex -0.833355 1.2472 0
      vertex -0.707094 1.32288 0
    endloop
  endfacet
  facet normal -0.989176 0.146734 0
    outer loop
      vertex 1.47118 -0.292635 0
      vertex 1.49278 -0.147025 8
      vertex 1.49278 -0.147025 0
    endloop
  endfacet
  facet normal -0.989176 0.146734 0
    outer loop
      vertex 1.49278 -0.147025 8
      vertex 1.47118 -0.292635 0
      vertex 1.47118 -0.292635 8
    endloop
  endfacet
  facet normal 0.146734 0.989176 -0
    outer loop
      vertex -0.147025 -1.49278 0
      vertex -0.292635 -1.47118 8
      vertex -0.147025 -1.49278 8
    endloop
  endfacet
  facet normal 0.146734 0.989176 0
    outer loop
      vertex -0.292635 -1.47118 8
      vertex -0.147025 -1.49278 0
      vertex -0.292635 -1.47118 0
    endloop
  endfacet
  facet normal -0.595698 0.803209 0
    outer loop
      vertex 0.95159 -1.15952 0
      vertex 0.833355 -1.2472 8
      vertex 0.95159 -1.15952 8
    endloop
  endfacet
  facet normal -0.595698 0.803209 0
    outer loop
      vertex 0.833355 -1.2472 8
      vertex 0.95159 -1.15952 0
      vertex 0.833355 -1.2472 0
    endloop
  endfacet
  facet normal 0.0490694 0.998795 -0
    outer loop
      vertex 0 -1.5 0
      vertex -0.147025 -1.49278 8
      vertex 0 -1.5 8
    endloop
  endfacet
  facet normal 0.0490694 0.998795 0
    outer loop
      vertex -0.147025 -1.49278 8
      vertex 0 -1.5 0
      vertex -0.147025 -1.49278 0
    endloop
  endfacet
  facet normal -0.595698 -0.803209 0
    outer loop
      vertex 0.833355 1.2472 0
      vertex 0.95159 1.15952 8
      vertex 0.833355 1.2472 8
    endloop
  endfacet
  facet normal -0.595698 -0.803209 -0
    outer loop
      vertex 0.95159 1.15952 8
      vertex 0.833355 1.2472 0
      vertex 0.95159 1.15952 0
    endloop
  endfacet
  facet normal -0.970033 0.242975 0
    outer loop
      vertex 1.43541 -0.435427 0
      vertex 1.47118 -0.292635 8
      vertex 1.47118 -0.292635 0
    endloop
  endfacet
  facet normal -0.970033 0.242975 0
    outer loop
      vertex 1.47118 -0.292635 8
      vertex 1.43541 -0.435427 0
      vertex 1.43541 -0.435427 8
    endloop
  endfacet
  facet normal 0.989176 -0.146734 0
    outer loop
      vertex -1.49278 0.147025 8
      vertex -1.47118 0.292635 0
      vertex -1.47118 0.292635 8
    endloop
  endfacet
  facet normal 0.989176 -0.146734 0
    outer loop
      vertex -1.47118 0.292635 0
      vertex -1.49278 0.147025 8
      vertex -1.49278 0.147025 0
    endloop
  endfacet
  facet normal 0.857728 -0.514103 0
    outer loop
      vertex -1.32288 0.707094 8
      vertex -1.2472 0.833355 0
      vertex -1.2472 0.833355 8
    endloop
  endfacet
  facet normal 0.857728 -0.514103 0
    outer loop
      vertex -1.2472 0.833355 0
      vertex -1.32288 0.707094 8
      vertex -1.32288 0.707094 0
    endloop
  endfacet
  facet normal 0.941542 0.336896 0
    outer loop
      vertex -1.38582 -0.574024 8
      vertex -1.43541 -0.435427 0
      vertex -1.43541 -0.435427 8
    endloop
  endfacet
  facet normal 0.941542 0.336896 0
    outer loop
      vertex -1.43541 -0.435427 0
      vertex -1.38582 -0.574024 8
      vertex -1.38582 -0.574024 0
    endloop
  endfacet
  facet normal 0.146734 -0.989176 0
    outer loop
      vertex -0.292635 1.47118 0
      vertex -0.147025 1.49278 8
      vertex -0.292635 1.47118 8
    endloop
  endfacet
  facet normal 0.146734 -0.989176 0
    outer loop
      vertex -0.147025 1.49278 8
      vertex -0.292635 1.47118 0
      vertex -0.147025 1.49278 0
    endloop
  endfacet
  facet normal -0.803209 -0.595698 0
    outer loop
      vertex 1.2472 0.833355 0
      vertex 1.15952 0.95159 8
      vertex 1.15952 0.95159 0
    endloop
  endfacet
  facet normal -0.803209 -0.595698 0
    outer loop
      vertex 1.15952 0.95159 8
      vertex 1.2472 0.833355 0
      vertex 1.2472 0.833355 8
    endloop
  endfacet
  facet normal 0.970033 0.242975 0
    outer loop
      vertex -1.43541 -0.435427 8
      vertex -1.47118 -0.292635 0
      vertex -1.47118 -0.292635 8
    endloop
  endfacet
  facet normal 0.970033 0.242975 0
    outer loop
      vertex -1.47118 -0.292635 0
      vertex -1.43541 -0.435427 8
      vertex -1.43541 -0.435427 0
    endloop
  endfacet
  facet normal 0.998795 0.0490694 0
    outer loop
      vertex -1.49278 -0.147025 8
      vertex -1.5 0 0
      vertex -1.5 0 8
    endloop
  endfacet
  facet normal 0.998795 0.0490694 0
    outer loop
      vertex -1.5 0 0
      vertex -1.49278 -0.147025 8
      vertex -1.49278 -0.147025 0
    endloop
  endfacet
  facet normal -0.514103 -0.857728 0
    outer loop
      vertex 0.707094 1.32288 0
      vertex 0.833355 1.2472 8
      vertex 0.707094 1.32288 8
    endloop
  endfacet
  facet normal -0.514103 -0.857728 -0
    outer loop
      vertex 0.833355 1.2472 8
      vertex 0.707094 1.32288 0
      vertex 0.833355 1.2472 0
    endloop
  endfacet
  facet normal -0.998795 0.0490694 0
    outer loop
      vertex 1.49278 -0.147025 0
      vertex 1.5 0 8
      vertex 1.5 0 0
    endloop
  endfacet
  facet normal -0.998795 0.0490694 0
    outer loop
      vertex 1.5 0 8
      vertex 1.49278 -0.147025 0
      vertex 1.49278 -0.147025 8
    endloop
  endfacet
  facet normal -0.903991 0.427552 0
    outer loop
      vertex 1.32288 -0.707094 0
      vertex 1.38582 -0.574024 8
      vertex 1.38582 -0.574024 0
    endloop
  endfacet
  facet normal -0.903991 0.427552 0
    outer loop
      vertex 1.38582 -0.574024 8
      vertex 1.32288 -0.707094 0
      vertex 1.32288 -0.707094 8
    endloop
  endfacet
  facet normal -0.857728 -0.514103 0
    outer loop
      vertex 1.32288 0.707094 0
      vertex 1.2472 0.833355 8
      vertex 1.2472 0.833355 0
    endloop
  endfacet
  facet normal -0.857728 -0.514103 0
    outer loop
      vertex 1.2472 0.833355 8
      vertex 1.32288 0.707094 0
      vertex 1.32288 0.707094 8
    endloop
  endfacet
  facet normal -0.740948 -0.671562 0
    outer loop
      vertex 1.15952 0.95159 0
      vertex 1.06066 1.06066 8
      vertex 1.06066 1.06066 0
    endloop
  endfacet
  facet normal -0.740948 -0.671562 0
    outer loop
      vertex 1.06066 1.06066 8
      vertex 1.15952 0.95159 0
      vertex 1.15952 0.95159 8
    endloop
  endfacet
  facet normal 0.0490694 -0.998795 0
    outer loop
      vertex -0.147025 1.49278 0
      vertex 0 1.5 8
      vertex -0.147025 1.49278 8
    endloop
  endfacet
  facet normal 0.0490694 -0.998795 0
    outer loop
      vertex 0 1.5 8
      vertex -0.147025 1.49278 0
      vertex 0 1.5 0
    endloop
  endfacet
  facet normal 0.740948 -0.671562 0
    outer loop
      vertex -1.15952 0.95159 8
      vertex -1.06066 1.06066 0
      vertex -1.06066 1.06066 8
    endloop
  endfacet
  facet normal 0.740948 -0.671562 0
    outer loop
      vertex -1.06066 1.06066 0
      vertex -1.15952 0.95159 8
      vertex -1.15952 0.95159 0
    endloop
  endfacet
  facet normal 0.671562 0.740948 -0
    outer loop
      vertex -0.95159 -1.15952 0
      vertex -1.06066 -1.06066 8
      vertex -0.95159 -1.15952 8
    endloop
  endfacet
  facet normal 0.671562 0.740948 0
    outer loop
      vertex -1.06066 -1.06066 8
      vertex -0.95159 -1.15952 0
      vertex -1.06066 -1.06066 0
    endloop
  endfacet
  facet normal -0.0490694 0.998795 0
    outer loop
      vertex 0.147025 -1.49278 0
      vertex 0 -1.5 8
      vertex 0.147025 -1.49278 8
    endloop
  endfacet
  facet normal -0.0490694 0.998795 0
    outer loop
      vertex 0 -1.5 8
      vertex 0.147025 -1.49278 0
      vertex 0 -1.5 0
    endloop
  endfacet
  facet normal -0.941542 -0.336896 0
    outer loop
      vertex 1.43541 0.435427 0
      vertex 1.38582 0.574024 8
      vertex 1.38582 0.574024 0
    endloop
  endfacet
  facet normal -0.941542 -0.336896 0
    outer loop
      vertex 1.38582 0.574024 8
      vertex 1.43541 0.435427 0
      vertex 1.43541 0.435427 8
    endloop
  endfacet
  facet normal -0.857728 0.514103 0
    outer loop
      vertex 1.2472 -0.833355 0
      vertex 1.32288 -0.707094 8
      vertex 1.32288 -0.707094 0
    endloop
  endfacet
  facet normal -0.857728 0.514103 0
    outer loop
      vertex 1.32288 -0.707094 8
      vertex 1.2472 -0.833355 0
      vertex 1.2472 -0.833355 8
    endloop
  endfacet
  facet normal -0.671562 -0.740948 0
    outer loop
      vertex 0.95159 1.15952 0
      vertex 1.06066 1.06066 8
      vertex 0.95159 1.15952 8
    endloop
  endfacet
  facet normal -0.671562 -0.740948 -0
    outer loop
      vertex 1.06066 1.06066 8
      vertex 0.95159 1.15952 0
      vertex 1.06066 1.06066 0
    endloop
  endfacet
  facet normal 0.242975 -0.970033 0
    outer loop
      vertex -0.435427 1.43541 0
      vertex -0.292635 1.47118 8
      vertex -0.435427 1.43541 8
    endloop
  endfacet
  facet normal 0.242975 -0.970033 0
    outer loop
      vertex -0.292635 1.47118 8
      vertex -0.435427 1.43541 0
      vertex -0.292635 1.47118 0
    endloop
  endfacet
  facet normal -0.336896 0.941542 0
    outer loop
      vertex 0.574024 -1.38582 0
      vertex 0.435427 -1.43541 8
      vertex 0.574024 -1.38582 8
    endloop
  endfacet
  facet normal -0.336896 0.941542 0
    outer loop
      vertex 0.435427 -1.43541 8
      vertex 0.574024 -1.38582 0
      vertex 0.435427 -1.43541 0
    endloop
  endfacet
  facet normal 0.427552 -0.903991 0
    outer loop
      vertex -0.707094 1.32288 0
      vertex -0.574024 1.38582 8
      vertex -0.707094 1.32288 8
    endloop
  endfacet
  facet normal 0.427552 -0.903991 0
    outer loop
      vertex -0.574024 1.38582 8
      vertex -0.707094 1.32288 0
      vertex -0.574024 1.38582 0
    endloop
  endfacet
  facet normal -0.903991 -0.427552 0
    outer loop
      vertex 1.38582 0.574024 0
      vertex 1.32288 0.707094 8
      vertex 1.32288 0.707094 0
    endloop
  endfacet
  facet normal -0.903991 -0.427552 0
    outer loop
      vertex 1.32288 0.707094 8
      vertex 1.38582 0.574024 0
      vertex 1.38582 0.574024 8
    endloop
  endfacet
  facet normal 0.671562 -0.740948 0
    outer loop
      vertex -1.06066 1.06066 0
      vertex -0.95159 1.15952 8
      vertex -1.06066 1.06066 8
    endloop
  endfacet
  facet normal 0.671562 -0.740948 0
    outer loop
      vertex -0.95159 1.15952 8
      vertex -1.06066 1.06066 0
      vertex -0.95159 1.15952 0
    endloop
  endfacet
  facet normal -0.336896 -0.941542 0
    outer loop
      vertex 0.435427 1.43541 0
      vertex 0.574024 1.38582 8
      vertex 0.435427 1.43541 8
    endloop
  endfacet
  facet normal -0.336896 -0.941542 -0
    outer loop
      vertex 0.574024 1.38582 8
      vertex 0.435427 1.43541 0
      vertex 0.574024 1.38582 0
    endloop
  endfacet
  facet normal 0.336896 -0.941542 0
    outer loop
      vertex -0.574024 1.38582 0
      vertex -0.435427 1.43541 8
      vertex -0.574024 1.38582 8
    endloop
  endfacet
  facet normal 0.336896 -0.941542 0
    outer loop
      vertex -0.435427 1.43541 8
      vertex -0.574024 1.38582 0
      vertex -0.435427 1.43541 0
    endloop
  endfacet
  facet normal 0.857728 0.514103 0
    outer loop
      vertex -1.2472 -0.833355 8
      vertex -1.32288 -0.707094 0
      vertex -1.32288 -0.707094 8
    endloop
  endfacet
  facet normal 0.857728 0.514103 0
    outer loop
      vertex -1.32288 -0.707094 0
      vertex -1.2472 -0.833355 8
      vertex -1.2472 -0.833355 0
    endloop
  endfacet
  facet normal 0.514103 0.857728 -0
    outer loop
      vertex -0.707094 -1.32288 0
      vertex -0.833355 -1.2472 8
      vertex -0.707094 -1.32288 8
    endloop
  endfacet
  facet normal 0.514103 0.857728 0
    outer loop
      vertex -0.833355 -1.2472 8
      vertex -0.707094 -1.32288 0
      vertex -0.833355 -1.2472 0
    endloop
  endfacet
  facet normal 0.427552 0.903991 -0
    outer loop
      vertex -0.574024 -1.38582 0
      vertex -0.707094 -1.32288 8
      vertex -0.574024 -1.38582 8
    endloop
  endfacet
  facet normal 0.427552 0.903991 0
    outer loop
      vertex -0.707094 -1.32288 8
      vertex -0.574024 -1.38582 0
      vertex -0.707094 -1.32288 0
    endloop
  endfacet
  facet normal 0.803209 0.595698 0
    outer loop
      vertex -1.15952 -0.95159 8
      vertex -1.2472 -0.833355 0
      vertex -1.2472 -0.833355 8
    endloop
  endfacet
  facet normal 0.803209 0.595698 0
    outer loop
      vertex -1.2472 -0.833355 0
      vertex -1.15952 -0.95159 8
      vertex -1.15952 -0.95159 0
    endloop
  endfacet
  facet normal 0.242975 0.970033 -0
    outer loop
      vertex -0.292635 -1.47118 0
      vertex -0.435427 -1.43541 8
      vertex -0.292635 -1.47118 8
    endloop
  endfacet
  facet normal 0.242975 0.970033 0
    outer loop
      vertex -0.435427 -1.43541 8
      vertex -0.292635 -1.47118 0
      vertex -0.435427 -1.43541 0
    endloop
  endfacet
  facet normal 0.989176 0.146734 0
    outer loop
      vertex -1.47118 -0.292635 8
      vertex -1.49278 -0.147025 0
      vertex -1.49278 -0.147025 8
    endloop
  endfacet
  facet normal 0.989176 0.146734 0
    outer loop
      vertex -1.49278 -0.147025 0
      vertex -1.47118 -0.292635 8
      vertex -1.47118 -0.292635 0
    endloop
  endfacet
  facet normal 0.595698 0.803209 -0
    outer loop
      vertex -0.833355 -1.2472 0
      vertex -0.95159 -1.15952 8
      vertex -0.833355 -1.2472 8
    endloop
  endfacet
  facet normal 0.595698 0.803209 0
    outer loop
      vertex -0.95159 -1.15952 8
      vertex -0.833355 -1.2472 0
      vertex -0.95159 -1.15952 0
    endloop
  endfacet
  facet normal 0.903991 0.427552 0
    outer loop
      vertex -1.32288 -0.707094 8
      vertex -1.38582 -0.574024 0
      vertex -1.38582 -0.574024 8
    endloop
  endfacet
  facet normal 0.903991 0.427552 0
    outer loop
      vertex -1.38582 -0.574024 0
      vertex -1.32288 -0.707094 8
      vertex -1.32288 -0.707094 0
    endloop
  endfacet
  facet normal 0.941542 -0.336896 0
    outer loop
      vertex -1.43541 0.435427 8
      vertex -1.38582 0.574024 0
      vertex -1.38582 0.574024 8
    endloop
  endfacet
  facet normal 0.941542 -0.336896 0
    outer loop
      vertex -1.38582 0.574024 0
      vertex -1.43541 0.435427 8
      vertex -1.43541 0.435427 0
    endloop
  endfacet
  facet normal -0.941542 0.336896 0
    outer loop
      vertex 1.38582 -0.574024 0
      vertex 1.43541 -0.435427 8
      vertex 1.43541 -0.435427 0
    endloop
  endfacet
  facet normal -0.941542 0.336896 0
    outer loop
      vertex 1.43541 -0.435427 8
      vertex 1.38582 -0.574024 0
      vertex 1.38582 -0.574024 8
    endloop
  endfacet
  facet normal 0.803209 -0.595698 0
    outer loop
      vertex -1.2472 0.833355 8
      vertex -1.15952 0.95159 0
      vertex -1.15952 0.95159 8
    endloop
  endfacet
  facet normal 0.803209 -0.595698 0
    outer loop
      vertex -1.15952 0.95159 0
      vertex -1.2472 0.833355 8
      vertex -1.2472 0.833355 0
    endloop
  endfacet
  facet normal 0.998795 -0.0490694 0
    outer loop
      vertex -1.5 0 8
      vertex -1.49278 0.147025 0
      vertex -1.49278 0.147025 8
    endloop
  endfacet
  facet normal 0.998795 -0.0490694 0
    outer loop
      vertex -1.49278 0.147025 0
      vertex -1.5 0 8
      vertex -1.5 0 0
    endloop
  endfacet
  facet normal 0.336896 0.941542 -0
    outer loop
      vertex -0.435427 -1.43541 0
      vertex -0.574024 -1.38582 8
      vertex -0.435427 -1.43541 8
    endloop
  endfacet
  facet normal 0.336896 0.941542 0
    outer loop
      vertex -0.574024 -1.38582 8
      vertex -0.435427 -1.43541 0
      vertex -0.574024 -1.38582 0
    endloop
  endfacet
  facet normal -0.740948 0.671562 0
    outer loop
      vertex 1.06066 -1.06066 0
      vertex 1.15952 -0.95159 8
      vertex 1.15952 -0.95159 0
    endloop
  endfacet
  facet normal -0.740948 0.671562 0
    outer loop
      vertex 1.15952 -0.95159 8
      vertex 1.06066 -1.06066 0
      vertex 1.06066 -1.06066 8
    endloop
  endfacet
  facet normal -0.671562 0.740948 0
    outer loop
      vertex 1.06066 -1.06066 0
      vertex 0.95159 -1.15952 8
      vertex 1.06066 -1.06066 8
    endloop
  endfacet
  facet normal -0.671562 0.740948 0
    outer loop
      vertex 0.95159 -1.15952 8
      vertex 1.06066 -1.06066 0
      vertex 0.95159 -1.15952 0
    endloop
  endfacet
endsolid OpenSCAD_Model
