<?xml version="1.0" encoding="UTF-8" standalone="no"?>
<!-- Created with Inkscape (http://www.inkscape.org/) -->

<svg
   xmlns:dc="http://purl.org/dc/elements/1.1/"
   xmlns:cc="http://creativecommons.org/ns#"
   xmlns:rdf="http://www.w3.org/1999/02/22-rdf-syntax-ns#"
   xmlns:svg="http://www.w3.org/2000/svg"
   xmlns="http://www.w3.org/2000/svg"
   xmlns:xlink="http://www.w3.org/1999/xlink"
   xmlns:sodipodi="http://sodipodi.sourceforge.net/DTD/sodipodi-0.dtd"
   xmlns:inkscape="http://www.inkscape.org/namespaces/inkscape"
   width="210mm"
   height="297mm"
   viewBox="0 0 210 297"
   version="1.1"
   id="svg8"
   inkscape:version="0.92.4 5da689c313, 2019-01-14"
   sodipodi:docname="necklace.svg">
  <defs
     id="defs2">
    <pattern
       inkscape:collect="always"
       xlink:href="#Voronoi984"
       id="pattern1771"
       patternTransform="translate(59.285215,30.786474)" />
    <pattern
       patternUnits="userSpaceOnUse"
       patternTransform="translate(-19.0201682288,48.0187264574)"
       height="93.6940012898"
       width="133.50877381"
       id="Voronoi984">
      <path
         id="path1749"
         style="stroke:#000000;stroke-width:0.264583333328"
         d="M 104.250,3.197 105.553,0.000 M 93.489,0.000 96.397,4.537 M 96.397,4.537 104.250,3.197 M 123.698,3.776 126.562,7.453 M 85.671,2.166 86.316,0.000 M 116.531,0.000 116.799,0.881 M 116.799,0.881 123.698,3.776 M 69.856,0.000 72.390,5.840 M 72.390,5.840 85.671,2.166 M 126.390,10.431 126.562,7.453 M 115.703,6.733 116.799,0.881 M 115.703,6.733 126.390,10.431 M 115.451,7.734 115.703,6.733 M 85.671,2.166 85.680,8.251 M 103.390,10.528 104.250,3.197 M 103.390,10.528 115.451,7.734 M 72.128,10.367 72.390,5.840 M 72.128,10.367 79.314,12.776 M 79.314,12.776 85.680,8.251 M 57.561,0.000 60.768,11.382 M 60.768,11.382 61.009,11.682 M 61.009,11.682 69.142,12.719 M 69.142,12.719 72.128,10.367 M 41.939,9.628 42.213,0.000 M 126.390,10.431 126.803,14.916 M 126.803,14.916 133.509,11.545 M 126.562,7.453 133.509,6.259 M 79.314,12.776 79.843,19.628 M 79.843,19.628 93.700,16.266 M 85.680,8.251 93.700,16.266 M 96.397,4.537 99.308,15.316 M 99.308,15.316 103.390,10.528 M 59.214,20.115 61.009,11.682 M 17.630,13.037 21.189,0.000 M 17.630,13.037 41.939,9.628 M 41.939,9.628 42.704,15.822 M 42.704,15.822 60.768,11.382 M 98.716,16.942 99.308,15.316 M 4.018,15.771 16.992,14.585 M 16.992,14.585 17.630,13.037 M 69.142,12.719 70.817,22.462 M 93.700,16.266 97.205,18.215 M 97.205,18.215 98.716,16.942 M 78.562,22.899 79.843,19.628 M 123.421,20.171 126.803,14.916 M 98.716,16.942 117.985,19.732 M 115.451,7.734 117.985,19.732 M 117.985,19.732 118.101,19.859 M 118.101,19.859 123.421,20.171 M 42.302,18.732 42.704,15.822 M 59.214,20.115 63.079,24.855 M 63.079,24.855 70.817,22.462 M 77.749,24.134 78.562,22.899 M 78.562,22.899 96.250,21.600 M 96.250,21.600 96.791,21.169 M 96.791,21.169 97.205,18.215 M 116.270,23.906 118.101,19.859 M 42.302,18.732 46.462,22.388 M 46.462,22.388 59.214,20.115 M 70.817,22.462 75.558,24.864 M 75.558,24.864 77.749,24.134 M 127.123,27.350 128.807,24.337 M 123.421,20.171 128.807,24.337 M 16.992,14.585 21.405,20.975 M 21.405,20.975 33.779,23.354 M 33.779,23.354 42.302,18.732 M 77.749,24.134 84.455,29.086 M 116.044,30.302 116.270,23.906 M 96.791,21.169 101.438,28.577 M 84.455,29.086 88.472,29.840 M 88.472,29.840 96.250,21.600 M 33.779,23.354 34.215,29.584 M 101.438,28.577 102.889,29.487 M 102.889,29.487 116.270,23.906 M 4.018,15.771 7.275,31.607 M 7.275,31.607 7.397,31.753 M 117.650,33.060 127.123,27.350 M 116.044,30.302 116.849,32.577 M 116.849,32.577 117.650,33.060 M 46.462,22.388 49.363,30.062 M 61.178,31.371 63.079,24.855 M 102.889,29.487 105.288,33.433 M 114.523,35.930 116.849,32.577 M 88.472,29.840 89.363,34.066 M 105.288,33.433 105.661,33.776 M 105.661,33.776 116.044,30.302 M 49.363,30.062 58.305,32.584 M 58.305,32.584 61.178,31.371 M 34.215,29.584 38.762,35.290 M 89.363,34.066 95.729,36.258 M 95.729,36.258 101.438,28.577 M 117.650,33.060 122.402,36.008 M 122.402,36.008 127.123,27.350 M 7.397,31.753 18.095,32.598 M 18.095,32.598 21.405,20.975 M 38.762,35.290 46.461,35.446 M 46.461,35.446 49.363,30.062 M 4.495,39.164 7.397,31.753 M 86.610,39.420 89.363,34.066 M 36.604,40.763 38.762,35.290 M 95.729,36.258 97.328,41.008 M 97.328,41.008 105.288,33.433 M 86.610,39.420 89.837,42.352 M 61.178,31.371 71.043,37.931 M 71.043,37.931 72.414,37.696 M 72.414,37.696 75.558,24.864 M 56.863,41.522 58.305,32.584 M 56.863,41.522 68.007,40.274 M 68.007,40.274 69.432,39.840 M 69.432,39.840 71.043,37.931 M 114.523,35.930 119.723,42.551 M 105.661,33.776 109.040,40.716 M 109.040,40.716 114.523,35.930 M 36.604,40.763 41.275,44.121 M 72.414,37.696 77.269,40.356 M 77.269,40.356 84.455,29.086 M 4.495,39.164 7.130,42.813 M 59.980,45.983 68.007,40.274 M 67.556,46.128 69.432,39.840 M 77.269,40.356 78.422,41.471 M 78.422,41.471 86.610,39.420 M 29.562,42.822 36.604,40.763 M 89.837,42.352 97.375,43.534 M 97.328,41.008 97.375,43.534 M 59.980,45.983 63.135,47.613 M 63.135,47.613 67.556,46.128 M 41.275,44.121 47.740,43.245 M 46.461,35.446 47.740,43.245 M 119.723,42.551 125.282,42.105 M 122.402,36.008 125.282,42.105 M 67.556,46.128 68.474,48.465 M 25.774,41.984 34.215,29.584 M 25.774,41.984 29.562,42.822 M 38.522,48.739 41.275,44.121 M 54.859,45.053 56.863,41.522 M 54.859,45.053 59.980,45.983 M 29.562,42.822 34.975,48.915 M 34.975,48.915 35.439,49.081 M 35.439,49.081 38.522,48.739 M 125.282,42.105 127.078,43.288 M 108.857,45.317 109.040,40.716 M 108.857,45.317 119.723,42.551 M 18.095,32.598 20.677,43.040 M 20.677,43.040 25.774,41.984 M 35.439,49.081 35.995,53.993 M 47.740,43.245 51.821,47.107 M 51.821,47.107 54.859,45.053 M 66.026,53.309 68.474,48.465 M 123.799,50.782 127.078,43.288 M 97.375,43.534 100.545,48.017 M 7.130,42.813 19.513,44.889 M 19.513,44.889 20.677,43.040 M 66.026,53.309 75.737,52.262 M 75.737,52.262 76.105,51.931 M 68.474,48.465 76.105,51.931 M 76.105,51.931 79.631,50.668 M 78.422,41.471 79.631,50.668 M 35.995,53.993 41.906,55.350 M 72.273,56.932 75.737,52.262 M 41.906,55.350 43.384,54.970 M 38.522,48.739 43.384,54.970 M 29.083,55.667 34.975,48.915 M 31.937,57.124 35.995,53.993 M 29.083,55.667 30.623,56.803 M 30.623,56.803 31.937,57.124 M 63.135,47.613 63.418,55.834 M 63.418,55.834 66.026,53.309 M 100.545,48.017 106.135,50.214 M 106.135,50.214 108.857,45.317 M 63.370,55.925 63.418,55.834 M 63.370,55.925 72.273,56.932 M 36.281,59.394 41.906,55.350 M 31.937,57.124 34.279,59.049 M 34.279,59.049 36.281,59.394 M 123.799,50.782 124.918,56.592 M 124.918,56.592 133.509,55.987 M 0.000,50.680 7.130,42.813 M 86.203,54.471 89.837,42.352 M 86.203,54.471 100.545,48.017 M 106.135,50.214 106.786,51.897 M 106.786,51.897 123.799,50.782 M 51.450,53.926 51.821,47.107 M 78.619,60.821 84.761,54.822 M 79.631,50.668 84.761,54.822 M 19.247,52.591 19.513,44.889 M 19.247,52.591 29.083,55.667 M 84.761,54.822 85.494,55.045 M 85.494,55.045 86.203,54.471 M 106.786,51.897 106.853,53.234 M 85.494,55.045 85.573,55.194 M 0.000,53.970 7.905,57.359 M 36.281,59.394 38.357,62.574 M 106.853,53.234 124.059,58.778 M 124.059,58.778 124.918,56.592 M 43.384,54.970 48.399,56.196 M 48.399,56.196 51.450,53.926 M 7.905,57.359 9.742,57.650 M 9.742,57.650 18.077,54.599 M 18.077,54.599 19.247,52.591 M 72.273,56.932 72.685,62.112 M 72.685,62.112 78.619,60.821 M 51.450,53.926 60.450,58.445 M 60.450,58.445 63.370,55.925 M 123.849,61.467 124.059,58.778 M 110.575,62.043 123.849,61.467 M 33.139,65.708 34.279,59.049 M 33.139,65.708 38.357,62.574 M 106.060,59.990 106.853,53.234 M 106.060,59.990 110.575,62.043 M 18.077,54.599 21.082,65.338 M 38.357,62.574 45.500,66.191 M 45.500,66.191 48.399,56.196 M 85.573,55.194 98.269,65.595 M 98.269,65.595 102.535,64.537 M 102.535,64.537 106.060,59.990 M 0.000,31.192 7.275,31.607 M 0.000,38.195 4.495,39.164 M 8.696,70.241 9.742,57.650 M 8.696,70.241 21.082,65.338 M 8.674,70.279 8.696,70.241 M 127.078,43.288 133.509,42.294 M 128.807,24.337 133.509,25.898 M 123.849,61.467 126.401,68.042 M 126.401,68.042 133.509,56.818 M 8.674,70.279 10.619,72.799 M 45.500,66.191 45.657,69.438 M 92.567,71.878 98.269,65.595 M 45.657,69.438 47.049,70.995 M 4.840,78.007 7.728,78.836 M 7.728,78.836 10.619,72.799 M 47.049,70.995 64.600,70.853 M 60.450,58.445 64.600,70.853 M 0.000,71.962 8.674,70.279 M 0.000,74.595 4.840,78.007 M 0.000,68.342 7.905,57.359 M 46.777,76.618 47.049,70.995 M 78.619,60.821 79.545,73.880 M 28.859,72.985 33.139,65.708 M 28.859,72.985 45.657,69.438 M 66.365,71.706 72.685,62.112 M 66.365,71.706 79.545,73.880 M 64.600,70.853 65.786,71.823 M 65.786,71.823 66.365,71.706 M 27.936,73.457 30.623,56.803 M 27.936,73.457 28.859,72.985 M 92.567,71.878 100.687,80.481 M 21.082,65.338 27.426,73.839 M 27.426,73.839 27.936,73.457 M 79.545,73.880 83.423,75.342 M 83.423,75.342 85.573,55.194 M 83.423,75.342 84.120,75.916 M 84.120,75.916 92.567,71.878 M 46.777,76.618 47.992,81.265 M 45.762,83.807 47.992,81.265 M 38.544,84.849 45.762,83.807 M 33.152,81.664 46.777,76.618 M 33.152,81.664 35.165,83.661 M 35.165,83.661 38.544,84.849 M 26.358,77.920 27.426,73.839 M 26.358,77.920 33.152,81.664 M 26.302,77.971 26.358,77.920 M 126.401,68.042 128.682,75.853 M 10.619,72.799 20.245,80.511 M 100.687,80.481 107.014,82.147 M 110.575,62.043 124.291,77.506 M 124.291,77.506 128.682,75.853 M 20.245,80.511 22.861,80.001 M 22.861,80.001 26.302,77.971 M 84.120,75.916 84.881,82.276 M 107.014,82.147 110.746,81.437 M 102.535,64.537 110.746,81.437 M 7.728,78.836 13.042,85.710 M 13.042,85.710 20.245,80.511 M 84.881,82.276 87.143,86.184 M 87.143,86.184 100.687,80.481 M 110.746,81.437 115.536,83.503 M 115.536,83.503 124.291,77.506 M 47.992,81.265 62.109,87.811 M 62.109,87.811 65.786,71.823 M 4.840,78.007 8.034,91.578 M 8.034,91.578 13.042,85.710 M 62.109,87.811 63.014,91.634 M 63.014,91.634 84.881,82.276 M 87.143,86.184 89.182,93.694 M 93.679,93.694 107.014,82.147 M 38.544,84.849 42.156,93.694 M 45.280,93.694 45.762,83.807 M 26.302,77.971 31.010,93.694 M 35.165,83.661 35.507,93.694 M 123.698,3.776 133.509,0.612 M 62.859,93.694 63.014,91.634 M 22.861,80.001 23.509,93.694 M 115.343,93.694 115.536,83.503 M 0.000,14.931 4.018,15.771 M 6.504,93.694 8.034,91.578 M 128.682,75.853 133.509,76.548 M 133.509,6.852 133.509,6.852 " />
    </pattern>
  </defs>
  <sodipodi:namedview
     id="base"
     pagecolor="#ffffff"
     bordercolor="#666666"
     borderopacity="1.0"
     inkscape:pageopacity="0.0"
     inkscape:pageshadow="2"
     inkscape:zoom="2.2902435"
     inkscape:cx="392.17093"
     inkscape:cy="681.90125"
     inkscape:document-units="mm"
     inkscape:current-layer="layer1"
     showgrid="false"
     inkscape:window-width="3840"
     inkscape:window-height="2032"
     inkscape:window-x="0"
     inkscape:window-y="54"
     inkscape:window-maximized="1" />
  <metadata
     id="metadata5">
    <rdf:RDF>
      <cc:Work
         rdf:about="">
        <dc:format>image/svg+xml</dc:format>
        <dc:type
           rdf:resource="http://purl.org/dc/dcmitype/StillImage" />
        <dc:title></dc:title>
      </cc:Work>
    </rdf:RDF>
  </metadata>
  <g
     inkscape:label="Layer 1"
     inkscape:groupmode="layer"
     id="layer1">
    <path
       style="opacity:1;fill:#ccff00;fill-opacity:1;stroke:none;stroke-width:2.64691019;stroke-miterlimit:4;stroke-dasharray:10.58764135, 2.64691034;stroke-dashoffset:0"
       d="M -94.962891 203.28125 C -95.394585 203.31848 -95.698231 203.67743 -96.041016 204.23047 C -98.266023 208.66 -90.73969 210.29063 -88.570312 213.04102 C -40.298115 249.40312 8.1621664 285.54466 56.34375 322.01367 C 79.172172 364.35424 101.32494 407.08887 123.96875 449.55273 C 174.59204 453.9758 225.28532 457.64301 275.9375 461.75 C 308.58534 491.33837 340.32745 522.09634 372.90625 551.64453 C 382.60577 554.51743 392.29872 557.41242 402.00586 560.25781 C 402.00889 560.6198 402.01057 560.98176 402.01367 561.34375 C 402.62741 561.16494 403.23992 560.98207 403.85352 560.80273 C 404.46711 560.98207 405.07962 561.16494 405.69336 561.34375 C 405.69646 560.98176 405.69814 560.6198 405.70117 560.25781 C 415.40831 557.41242 425.10127 554.51743 434.80078 551.64453 C 467.37959 522.09634 499.12167 491.33837 531.76953 461.75 C 582.4217 457.64301 633.11499 453.9758 683.73828 449.55273 C 706.38207 407.08887 728.53486 364.35424 751.36328 322.01367 C 799.54485 285.54466 848.00514 249.40312 896.27734 213.04102 C 898.44672 210.29063 905.97305 208.66 903.74805 204.23047 C 903.1996 203.34561 902.74996 202.95473 901.71875 203.58984 C 811.41499 242.22116 721.57666 281.97911 631.48047 321.10938 C 601.60829 317.62038 571.74715 314.01447 541.86133 310.65625 C 495.53985 333.76361 449.87954 358.27788 403.85352 382.00781 C 357.82749 358.27788 312.1672 333.76361 265.8457 310.65625 C 235.95989 314.01447 206.09874 317.62038 176.22656 321.10938 C 86.130362 281.97911 -3.7079536 242.22116 -94.011719 203.58984 C -94.398414 203.35168 -94.703874 203.25891 -94.962891 203.28125 z M -76.660156 216.01172 C -70.555989 218.66341 -64.451828 221.3151 -58.347656 223.9668 C -47.675234 228.64146 -36.981451 233.26771 -26.330078 237.99023 C -27.45684 242.28622 -28.543112 247.24065 -29.96875 251.05078 C -45.553904 239.39899 -61.123452 227.72757 -76.660156 216.01172 z M 884.36719 216.01172 C 868.83049 227.72757 853.26097 239.39899 837.67578 251.05078 C 836.25014 247.24065 835.16386 242.28622 834.03711 237.99023 C 844.6885 233.26771 855.38225 228.64146 866.05469 223.9668 C 872.15885 221.3151 878.26302 218.66341 884.36719 216.01172 z M -21.197266 240.31445 C -20.83425 240.27648 -20.410456 240.42144 -19.914062 240.79688 C -14.041717 243.30823 -8.1784877 245.84254 -2.3242188 248.39648 C -9.8752665 249.46754 -17.428331 250.52444 -24.986328 251.54492 C -23.361651 249.80108 -23.738372 240.58025 -21.197266 240.31445 z M 828.90234 240.31445 C 831.44345 240.58025 831.06869 249.80108 832.69336 251.54492 C 825.13536 250.52444 817.58229 249.46754 810.03125 248.39648 C 815.88551 245.84254 821.74877 243.30823 827.62109 240.79688 C 828.11749 240.42144 828.53933 240.27648 828.90234 240.31445 z M 6.7011719 252.375 C 12.837651 255.04913 18.974849 257.72236 25.111328 260.39648 C 36.81129 265.5312 48.565101 270.5446 60.228516 275.76172 C 51.002753 280.88158 41.614529 285.95151 32.267578 290.94922 C 25.842302 289.58813 18.813379 289.44575 14.115234 284.14062 C 1.6254824 274.86716 -10.853564 265.50795 -23.195312 256.0957 C -13.259873 254.96902 -3.118924 252.53814 6.7011719 252.375 z M 801.00391 252.375 C 810.82403 252.53814 820.96691 254.96902 830.90234 256.0957 C 818.5606 265.50795 806.07959 274.86716 793.58984 284.14062 C 788.8917 289.44575 781.86473 289.58813 775.43945 290.94922 C 766.09249 285.95151 756.70427 280.88158 747.47852 275.76172 C 759.14195 270.5446 770.89576 265.5312 782.5957 260.39648 C 788.73218 257.72236 794.86743 255.04913 801.00391 252.375 z M 64.642578 278.86719 L 65.40625 279.51172 L 65.84375 279.88086 C 71.544604 285.44698 79.797066 289.33713 81.259766 297.86328 C 83.818914 304.80169 86.688472 311.7543 88.939453 318.72852 C 85.840422 324.78277 82.532979 330.72699 79.3125 336.7168 C 74.123503 336.58648 67.888437 338.05955 66.845703 331.20117 C 63.364222 324.65991 60.824829 317.31565 53.652344 313.92188 C 47.887997 308.96569 40.175678 305.07726 35.625 299.45703 C 33.903724 294.7149 37.709345 292.95543 41.546875 291.32227 C 49.237027 287.15598 56.91013 282.9545 64.642578 278.86719 z M 743.06445 278.86719 C 750.79691 282.9545 758.46807 287.15598 766.1582 291.32227 C 769.99575 292.95543 773.80135 294.7149 772.08008 299.45703 C 767.52938 305.07726 759.81708 308.96569 754.05273 313.92188 C 746.88025 317.31565 744.34085 324.65991 740.85938 331.20117 C 739.81664 338.05955 733.58352 336.58648 728.39453 336.7168 C 725.17403 330.72699 721.8666 324.78277 718.76758 318.72852 C 721.01855 311.7543 723.88616 304.80169 726.44531 297.86328 C 727.90803 289.33713 736.16243 285.44698 741.86328 279.88086 L 742.29883 279.51172 L 743.06445 278.86719 z M 76.599609 282.79492 C 76.764263 282.81703 77.21111 283.0192 78.074219 283.49023 C 85.339079 284.7826 85.019724 289.65429 79.001953 285.09375 C 78.140076 284.28689 76.105647 282.72858 76.599609 282.79492 z M 731.10547 282.79492 C 731.59944 282.72858 729.56695 284.28689 728.70508 285.09375 C 722.68731 289.65429 722.36796 284.7826 729.63281 283.49023 C 730.49592 283.0192 730.94081 282.81703 731.10547 282.79492 z M 91.910156 290.35547 C 94.471731 290.38622 96.964925 291.01353 99.318359 292.75586 C 104.81385 295.1491 110.3092 297.54231 115.80469 299.93555 C 123.17494 303.16521 130.56062 306.36196 137.91992 309.61719 C 135.79127 314.74896 136.62318 322.77643 129.82617 323.90234 C 123.21131 328.07557 116.03239 322.00752 109.11328 321.22656 C 103.98155 319.42432 97.964499 318.63635 93.326172 316.25391 C 90.123691 308.06059 87.051679 299.81581 84.087891 291.5332 C 86.718485 290.89052 89.348581 290.32472 91.910156 290.35547 z M 715.79492 290.35547 C 718.35649 290.32472 720.98853 290.89052 723.61914 291.5332 C 720.65535 299.81581 717.58337 308.06059 714.38086 316.25391 C 709.74255 318.63635 703.72548 319.42432 698.59375 321.22656 C 691.67464 322.00752 684.49571 328.07557 677.88086 323.90234 C 671.08387 322.77643 671.91578 314.74896 669.78711 309.61719 C 677.14642 306.36196 684.53211 303.16521 691.90234 299.93555 C 697.39785 297.54231 702.89316 295.1491 708.38867 292.75586 C 710.74211 291.01353 713.23335 290.38622 715.79492 290.35547 z M 28.628906 294.93359 C 28.787379 294.89483 29.213796 294.98878 30.048828 295.30859 C 32.273198 297.75951 27.94219 295.10157 28.628906 294.93359 z M 779.07617 294.93359 C 779.7629 295.10157 775.43385 297.75951 777.6582 295.30859 C 778.49324 294.98878 778.9177 294.89483 779.07617 294.93359 z M 142.33984 311.58398 L 145.60547 312.98438 C 155.7647 317.17757 165.79442 322.17969 176.00977 325.9375 C 183.79315 322.87817 181.24569 328.90994 179.71875 334.05859 C 178.296 337.65938 178.47235 342.93925 176.18945 345.66211 C 170.36795 345.32448 165.77889 339.48897 160.50586 336.94141 C 153.46302 332.14713 145.94718 327.53914 139.26172 322.52344 C 140.18616 318.80355 141.19008 315.2833 142.33984 311.58398 z M 665.36719 311.58398 C 666.51696 315.2833 667.52088 318.80355 668.44531 322.52344 C 661.75986 327.53914 654.24207 332.14713 647.19922 336.94141 C 641.92617 339.48897 637.33907 345.32448 631.51758 345.66211 C 629.23467 342.93925 629.41101 337.65938 627.98828 334.05859 C 626.46131 328.90994 623.9139 322.87817 631.69727 325.9375 C 641.91261 322.17969 651.94234 317.17757 662.10156 312.98438 C 663.1901 312.51758 664.27865 312.05078 665.36719 311.58398 z M 265.0293 315.82812 C 265.51864 315.83569 266.00631 315.85246 266.49219 315.87891 C 268.56312 316.95795 270.63415 318.03619 272.70508 319.11523 C 279.68372 320.61505 278.58925 324.1229 274.3418 328.24023 C 271.57714 331.96135 268.85348 335.71563 265.92969 339.31445 C 258.93252 336.95992 251.91099 334.55337 244.92188 332.11133 C 244.3894 327.58384 241.96423 322.37787 242.52539 318.12109 C 249.97931 317.61211 257.68909 315.71471 265.0293 315.82812 z M 542.67773 315.82812 C 550.01795 315.71471 557.72769 317.61211 565.18164 318.12109 C 565.74279 322.37787 563.31762 327.58384 562.78516 332.11133 C 555.79602 334.55337 548.7745 336.95992 541.77734 339.31445 C 538.85354 335.71563 536.12793 331.96135 533.36328 328.24023 C 529.11581 324.1229 528.02332 320.61505 535.00195 319.11523 C 537.07291 318.03619 539.14393 316.95795 541.21484 315.87891 C 541.70072 315.85246 542.18839 315.83569 542.67773 315.82812 z M 233.07031 319.29492 C 234.05591 319.29508 235.03706 319.38631 236.00977 319.61914 C 239.71481 320.82106 238.12669 327.32283 239.77148 330.56836 C 241.26116 336.63019 235.16463 341.66859 233.3418 347.28125 C 232.35696 352.93771 226.93595 353.0527 222.37891 354.20312 C 215.67546 355.90021 208.96624 357.57425 202.25977 359.25977 C 197.44124 355.52516 206.57 349.99163 207.67969 345.49219 C 213.25862 337.22704 218.19265 328.02035 224.17383 320.35742 C 227.11528 320.11058 230.11351 319.29446 233.07031 319.29492 z M 574.63672 319.29492 C 577.59352 319.29446 580.59175 320.11058 583.5332 320.35742 C 589.51438 328.02035 594.44842 337.22704 600.02734 345.49219 C 601.13705 349.99163 610.26579 355.52516 605.44727 359.25977 C 598.7408 357.57425 592.03161 355.90021 585.32812 354.20312 C 580.77111 353.0527 575.34811 352.93771 574.36328 347.28125 C 572.54045 341.66859 566.44389 336.63019 567.93359 330.56836 C 569.57837 327.32283 567.99223 320.82106 571.69727 319.61914 C 572.66997 319.38631 573.65112 319.29508 574.63672 319.29492 z M 217.69336 321.03516 C 217.24153 321.74869 216.78971 322.46224 216.33789 323.17578 C 209.69561 333.59725 203.09669 344.04677 196.33984 354.39453 C 191.37771 351.78642 186.44078 349.1293 181.5332 346.41992 C 183.40092 339.26239 184.81605 331.42761 187.17188 324.76758 C 197.30631 323.46308 207.55567 322.23036 217.69336 321.03516 z M 590.01367 321.03516 C 600.15135 322.23036 610.40069 323.46308 620.53516 324.76758 C 622.89097 331.42761 624.30614 339.26239 626.17383 346.41992 C 621.26626 349.1293 616.32933 351.78642 611.36719 354.39453 C 604.61034 344.04677 598.01143 333.59725 591.36914 323.17578 C 590.91734 322.46224 590.46548 321.74869 590.01367 321.03516 z M 94.322266 322.16016 C 94.757169 322.15647 95.227772 322.23772 95.742188 322.41797 L 96.498047 322.61523 C 105.24816 324.98855 113.9898 327.39639 122.68945 329.94922 C 120.69118 340.92681 120.07649 352.45634 116.77734 363.01367 C 113.51844 369.10903 110.57492 375.49526 103.83984 378.38086 C 99.378183 382.64284 95.99418 373.48493 92.054688 371.46484 C 85.484138 367.67069 87.208713 359.45879 85.425781 353.1875 C 84.683403 346.3783 81.19631 339.10914 86.507812 333.31641 C 89.344475 330.16535 90.118198 322.19575 94.322266 322.16016 z M 713.38477 322.16016 C 717.58885 322.19575 718.36062 330.16535 721.19727 333.31641 C 726.50879 339.10914 723.02366 346.3783 722.28125 353.1875 C 720.49833 359.45879 722.22286 367.67069 715.65234 371.46484 C 711.71283 373.48493 708.32884 382.64284 703.86719 378.38086 C 697.13211 375.49526 694.18859 369.10903 690.92969 363.01367 C 687.63054 352.45634 687.01585 340.92681 685.01758 329.94922 C 693.71722 327.39639 702.45885 324.98855 711.20898 322.61523 L 711.96289 322.41797 C 712.47731 322.23772 712.94986 322.15647 713.38477 322.16016 z M 282.96875 324.58984 L 283.86719 325.02734 L 284.58203 325.375 C 289.22989 327.70924 293.86136 330.07778 298.44336 332.53906 C 290.36372 340.36981 282.19195 348.10405 274.02344 355.8418 C 273.02176 351.22999 269.54266 346.16014 270.14453 341.76172 C 274.41384 336.03387 278.645 330.27688 282.96875 324.58984 z M 524.73828 324.58984 C 529.06202 330.27688 533.29123 336.03387 537.56055 341.76172 C 538.1624 346.16014 534.68528 351.22999 533.68359 355.8418 C 525.51509 348.10405 517.34332 340.36981 509.26367 332.53906 C 513.84567 330.07778 518.47713 327.70924 523.125 325.375 L 523.83789 325.02734 L 524.73828 324.58984 z M 136.38867 326.55078 C 147.5959 333.88341 158.89805 341.495 170.03906 349.08789 C 166.01158 356.93231 156.20154 354.93166 148.98047 356.44727 C 140.27441 357.43332 131.56499 358.37955 122.86133 359.37891 C 124.40498 349.56559 125.99793 339.6421 127.67188 329.91797 C 130.53249 328.92702 133.56888 326.91588 136.38867 326.55078 z M 671.31836 326.55078 C 674.13815 326.91588 677.17455 328.92702 680.03516 329.91797 C 681.70911 339.6421 683.30207 349.56559 684.8457 359.37891 C 676.14206 358.37955 667.43064 357.43332 658.72461 356.44727 C 651.50352 354.93166 641.69547 356.93231 637.66797 349.08789 C 648.809 341.495 660.11115 333.88341 671.31836 326.55078 z M 302.93359 335.28516 C 307.00367 343.6139 311.79154 351.9336 314.85742 360.53125 C 314.24249 368.2011 315.75816 376.47054 310.32812 382.7832 C 307.7603 385.3797 307.12367 393.51281 302.63281 390.93555 C 295.57623 387.45948 286.08716 387.03172 282.61133 378.96484 C 278.945 373.85496 274.30573 369.12765 275.38281 362.46094 C 276.73384 357.72966 283.00131 354.8745 286.13672 350.82227 C 291.69552 345.75664 297.43676 339.59381 302.93359 335.28516 z M 504.77344 335.28516 C 510.27027 339.59381 516.01153 345.75664 521.57031 350.82227 C 524.70573 354.8745 530.97319 357.72966 532.32422 362.46094 C 533.40131 369.12765 528.76203 373.85496 525.0957 378.96484 C 521.61986 387.03172 512.13082 387.45948 505.07422 390.93555 C 500.58338 393.51281 499.94676 385.3797 497.37891 382.7832 C 491.9489 376.47054 493.46259 368.2011 492.84766 360.53125 C 495.91357 351.9336 500.70338 343.6139 504.77344 335.28516 z M 244 336.8125 C 244.63802 337.02147 245.27604 337.23048 245.91406 337.43945 C 252.2304 340.10569 260.19673 341.19174 265.43555 344.95898 C 267.45236 352.23815 271.50073 359.16443 270.7793 366.91992 C 262.29445 365.23574 253.0845 364.90254 244.98438 362.30469 C 241.82342 359.40682 238.46828 356.44855 235.48438 353.53906 C 238.27727 347.94054 241.11449 342.36382 244 336.8125 z M 563.70703 336.8125 C 566.59255 342.36382 569.42977 347.94054 572.22266 353.53906 C 569.23876 356.44855 565.88359 359.40682 562.72266 362.30469 C 554.62252 364.90254 545.41258 365.23574 536.92773 366.91992 C 536.2063 359.16443 540.25274 352.23815 542.26953 344.95898 C 547.50837 341.19174 555.47662 340.10569 561.79297 337.43945 C 562.43099 337.23048 563.06901 337.02147 563.70703 336.8125 z M 311.35742 339.23633 C 312.02059 339.11606 313.46708 339.80173 316.08203 341.68945 C 317.93123 342.64982 319.78166 343.60993 321.63086 344.57031 C 329.23417 346.43734 324.88266 349.79377 320.50586 353.05859 C 317.0229 358.16677 316.2166 349.74734 314.27148 347.5 C 312.23401 343.66477 309.89845 339.50092 311.35742 339.23633 z M 496.34766 339.23633 C 497.80663 339.50092 495.47302 343.66477 493.43555 347.5 C 491.49041 349.74734 490.68412 358.16677 487.20117 353.05859 C 482.82437 349.79377 478.47286 346.43734 486.07617 344.57031 C 487.92538 343.60993 489.77384 342.64982 491.62305 341.68945 C 494.238 339.80173 495.68448 339.11606 496.34766 339.23633 z M 75.408203 341.16797 C 78.109723 341.28899 79.984105 342.42321 79.455078 346.2793 C 79.528968 349.27376 83.539166 364.01778 79.773438 355.74219 C 77.489276 351.05878 74.005594 345.56372 72.490234 341.32031 C 73.516049 341.19869 74.507696 341.12763 75.408203 341.16797 z M 732.29688 341.16797 C 733.19738 341.12763 734.19099 341.19869 735.2168 341.32031 C 733.70143 345.56372 730.2158 351.05878 727.93164 355.74219 C 724.16579 364.01778 728.17592 349.27376 728.25 346.2793 C 727.72097 342.42321 729.59537 341.28899 732.29688 341.16797 z M 331.57617 349.83008 C 332.20052 350.14389 332.82487 350.45769 333.44922 350.77148 C 340.42202 354.94713 349.33332 356.90943 353.50977 364.50781 C 342.05146 367.54086 330.56066 370.46042 319.04492 373.26758 C 319.65521 368.83184 318.49449 363.56193 320.15039 359.58203 C 323.87255 356.23284 327.67298 352.96681 331.57617 349.83008 z M 476.13086 349.83008 C 480.03405 352.96681 483.83445 356.23284 487.55664 359.58203 C 489.21253 363.56193 488.05183 368.83184 488.66211 373.26758 C 477.14638 370.46042 465.65558 367.54086 454.19727 364.50781 C 458.37372 356.90943 467.285 354.94713 474.25781 350.77148 C 474.88215 350.45769 475.50652 350.14389 476.13086 349.83008 z M 176.9375 350.23438 C 180.53176 349.99557 183.47938 353.39629 186.86523 354.67188 C 192.52549 357.9689 201.16908 360.7487 200.07812 368.95312 C 200.80474 377.56185 203.29639 387.18825 202.9082 395.22852 C 197.96707 396.68806 192.79357 400.70323 188.02344 396.66602 C 180.62043 392.93558 172.14516 390.26478 165.46289 385.79492 C 163.24409 381.80185 162.53161 377.64997 164.71289 373.45312 C 167.51748 365.50834 168.00909 355.75408 175.35547 350.57617 C 175.89855 350.37669 176.42403 350.26849 176.9375 350.23438 z M 630.76758 350.23438 C 631.28104 350.26849 631.80848 350.37669 632.35156 350.57617 C 639.69794 355.75408 640.18759 365.50834 642.99219 373.45312 C 645.17347 377.64997 644.46295 381.80185 642.24414 385.79492 C 635.56186 390.26478 627.08659 392.93558 619.68359 396.66602 C 614.91345 400.70323 609.73999 396.68806 604.79883 395.22852 C 604.41067 387.18825 606.90034 377.56185 607.62695 368.95312 C 606.53603 360.7487 615.18154 357.9689 620.8418 354.67188 C 624.22766 353.39629 627.17331 349.99557 630.76758 350.23438 z M 231.97266 356.79492 C 235.37411 359.81414 238.70586 362.91342 241.96094 366.08984 C 237.3134 380.6595 233.58764 395.79513 228.39258 410.01367 C 225.71788 411.17996 223.14217 406.45718 220.68164 405.40039 C 216.77468 401.56905 210.91127 398.82883 208.17383 394.24805 C 206.75009 384.08305 205.42481 373.94094 204.20508 363.75 C 213.43922 361.2265 222.67181 358.90608 231.97266 356.79492 z M 575.73438 356.79492 C 585.03523 358.90608 594.26781 361.2265 603.50195 363.75 C 602.28222 373.94094 600.95691 384.08305 599.5332 394.24805 C 596.79577 398.82883 590.93041 401.56905 587.02344 405.40039 C 584.56293 406.45718 581.98915 411.17996 579.31445 410.01367 C 574.11942 395.79513 570.39363 380.6595 565.74609 366.08984 C 569.00117 362.91342 572.33291 359.81414 575.73438 356.79492 z M 163.90039 359.54102 C 161.56613 365.4417 161.05502 373.13082 157.58789 377.95508 C 152.61008 378.91663 147.54596 382.61011 142.65625 381.88281 C 138.08563 380.09876 134.51262 378.06957 140.70898 375.47266 C 148.38113 370.29721 156.07251 363.86086 163.90039 359.54102 z M 643.80664 359.54102 C 651.63453 363.86086 659.32396 370.29721 666.99609 375.47266 C 673.19248 378.06957 669.6214 380.09876 665.05078 381.88281 C 660.16106 382.61011 655.09697 378.91663 650.11914 377.95508 C 646.65203 373.13082 646.14091 365.4417 643.80664 359.54102 z M 153.33984 360.74414 C 150.49739 362.76432 147.65495 364.78451 144.8125 366.80469 C 140.12779 369.94098 135.59566 373.65391 130.75 376.36133 C 125.87321 375.49808 121.04335 374.59568 116.18164 373.68555 C 119.08854 369.46886 120.06712 362.27226 126.73828 363.66797 C 135.60189 362.66103 144.46913 361.6863 153.33984 360.74414 z M 654.36719 360.74414 C 663.23789 361.6863 672.10512 362.66103 680.96875 363.66797 C 687.63988 362.27226 688.61848 369.46886 691.52539 373.68555 C 686.66367 374.59568 681.83383 375.49808 676.95703 376.36133 C 672.11137 373.65391 667.57922 369.94098 662.89453 366.80469 C 660.05206 364.78451 657.20962 362.76432 654.36719 360.74414 z M 246.3125 367.89062 C 247.13802 368.01044 247.96354 368.13019 248.78906 368.25 C 256.48726 369.88108 265.36555 369.83624 272.40039 372.63477 C 275.42724 376.93222 278.49234 381.20382 281.4707 385.53516 C 265.96218 392.76422 250.31671 399.66269 234.70898 406.71094 C 238.53492 393.77887 242.39679 380.81476 246.3125 367.89062 z M 561.39453 367.89062 C 565.31024 380.81476 569.17211 393.77887 572.99805 406.71094 C 557.39034 399.66269 541.74483 392.76422 526.23633 385.53516 C 529.21467 381.20382 532.27785 376.93222 535.30469 372.63477 C 542.33952 369.83624 551.21979 369.88108 558.91797 368.25 C 559.74349 368.13019 560.56901 368.01044 561.39453 367.89062 z M 364.63281 367.98828 C 365.35081 368.00121 366.06959 368.0369 366.78906 368.09766 C 369.05376 369.27349 371.31929 370.44917 373.58398 371.625 C 382.6487 373.16225 378.57316 379.34671 375.71484 385.09961 C 373.31352 389.50847 372.91945 396.78667 366.27734 395.125 C 347.61668 396.38158 328.95265 397.56638 310.29297 398.83789 C 306.88911 392.91839 314.12646 387.72887 316.01172 382.17969 C 318.28685 375.45793 327.16073 377.3016 332.63086 374.72656 C 343.25141 372.71429 353.86278 367.7944 364.63281 367.98828 z M 443.07227 367.98828 C 453.8423 367.7944 464.45369 372.71429 475.07422 374.72656 C 480.54437 377.3016 489.42019 375.45793 491.69531 382.17969 C 493.58058 387.72887 500.81794 392.91839 497.41406 398.83789 C 478.75438 397.56638 460.0884 396.38158 441.42773 395.125 C 434.78563 396.78667 434.39351 389.50847 431.99219 385.09961 C 429.13388 379.34671 425.05834 373.16225 434.12305 371.625 C 436.38774 370.44917 438.65132 369.27349 440.91602 368.09766 C 441.63548 368.0369 442.35426 368.00121 443.07227 367.98828 z M 90.958984 376.92188 L 91.597656 377.52344 C 95.520167 380.98562 100.25983 384.21254 98.228516 390.08789 C 96.215615 387.5886 93.287604 380.98528 90.958984 376.92188 z M 716.74805 376.92188 C 714.41944 380.98528 711.48946 387.5886 709.47656 390.08789 C 707.44526 384.21254 712.18687 380.98562 716.10938 377.52344 L 716.74805 376.92188 z M 384.32422 377.24414 L 385.21484 377.69922 L 385.46094 377.82422 C 390.39247 381.04962 397.70128 382.84141 401.16016 386.97852 C 401.19795 396.30533 401.23123 405.63217 401.26562 414.95898 C 393.90798 415.53631 386.55322 415.97458 379.19531 416.54688 C 378.48786 409.5569 375.01897 402.25497 376.27344 395.47461 C 378.94693 389.39358 381.57427 383.29114 384.32422 377.24414 z M 423.38281 377.24414 C 426.13276 383.29114 428.75815 389.39358 431.43164 395.47461 C 432.6861 402.25497 429.21917 409.5569 428.51172 416.54688 C 421.15381 415.97458 413.79905 415.53631 406.44141 414.95898 C 406.4758 405.63217 406.50908 396.30533 406.54688 386.97852 C 410.00575 382.84141 417.31457 381.04962 422.24609 377.82422 L 422.49219 377.69922 L 423.38281 377.24414 z M 114.77148 378.2832 C 116.86764 378.24535 119.12135 378.75635 121.74219 379.46289 C 128.88338 379.95816 135.38127 382.93295 141.33789 386.58008 C 141.75845 396.17203 142.15917 405.76897 142.38477 415.3418 C 139.29589 417.86278 136.3163 420.82669 133.10938 423.06055 C 124.92867 418.7687 115.83081 415.25581 108.44727 410.06641 C 105.42358 404.1581 100.93313 398.51261 102.87109 391.54883 C 102.97707 387.62855 102.63333 383.36172 107.01367 381.9043 C 109.64078 379.28839 112.07642 378.33187 114.77148 378.2832 z M 692.93359 378.2832 C 695.62866 378.33187 698.06626 379.28839 700.69336 381.9043 C 705.07368 383.36172 704.73011 387.62855 704.83594 391.54883 C 706.77389 398.51261 702.28151 404.1581 699.25781 410.06641 C 691.87428 415.25581 682.77837 418.7687 674.59766 423.06055 C 671.39073 420.82669 668.41112 417.86278 665.32227 415.3418 C 665.54787 405.76897 665.94859 396.17203 666.36914 386.58008 C 672.32575 382.93295 678.82365 379.95816 685.96484 379.46289 C 688.58568 378.75635 690.83743 378.24535 692.93359 378.2832 z M 158.01953 383.01953 C 158.50267 383.01568 158.95614 383.07524 159.36914 383.21484 C 163.85185 389.4203 156.81137 395.10841 154.80664 401.01562 C 154.01267 403.6876 146.07255 414.83373 146.87891 407.57617 C 146.61222 400.63507 146.33172 393.70303 146.1582 386.77734 C 149.74065 386.18402 154.63755 383.04649 158.01953 383.01953 z M 649.68555 383.01953 C 653.06755 383.04649 657.96636 386.18402 661.54883 386.77734 C 661.37531 393.70303 661.09496 400.63507 660.82812 407.57617 C 661.63449 414.83373 653.6924 403.6876 652.89844 401.01562 C 650.8937 395.10841 643.85518 389.4203 648.33789 383.21484 C 648.75089 383.07524 649.2024 383.01568 649.68555 383.01953 z M 285.20703 389.14453 C 287.80338 390.16534 290.39974 391.18618 292.99609 392.20703 C 298.09547 394.87795 305.92638 394.76799 306.47656 401.93945 C 306.4159 411.78195 304.95818 421.66011 303.40625 431.33203 C 298.96596 436.45371 295.43881 443.02147 290.37109 447.20117 C 284.67436 447.57799 277.79199 453.07915 273.41211 447.36133 C 259.60351 436.12064 245.4509 424.79631 232.04492 413.36328 C 249.5704 404.87597 267.50348 397.25234 285.20703 389.14453 z M 522.5 389.14453 C 540.20353 397.25234 558.13663 404.87597 575.66211 413.36328 C 562.25616 424.79631 548.1035 436.12064 534.29492 447.36133 C 529.91502 453.07915 523.03072 447.57799 517.33398 447.20117 C 512.26628 443.02147 508.74105 436.45371 504.30078 431.33203 C 502.74883 421.66011 501.29094 411.78195 501.23047 401.93945 C 501.78065 394.76799 509.61156 394.87795 514.71094 392.20703 C 517.30728 391.18618 519.90365 390.16534 522.5 389.14453 z M 166.11328 392.08203 C 166.36192 392.0926 166.62379 392.14213 166.90039 392.23438 C 170.16819 393.71565 173.43727 395.19646 176.70508 396.67773 C 179.29636 398.35959 190.88339 401.46621 181.82031 401.3125 C 174.55973 401.75799 164.77952 403.8621 158.98242 403.2793 C 161.63891 400.4714 162.38377 391.9235 166.11328 392.08203 z M 641.5918 392.08203 C 645.32133 391.9235 646.06812 400.4714 648.72461 403.2793 C 642.92753 403.8621 633.1473 401.75799 625.88672 401.3125 C 616.82364 401.46621 628.41067 398.35959 631.00195 396.67773 C 634.26977 395.19646 637.53691 393.71565 640.80469 392.23438 C 641.08129 392.14213 641.34316 392.0926 641.5918 392.08203 z M 371.11133 399.62695 L 371.3125 400.60742 L 371.44531 401.24023 C 372.11346 408.89457 377.01906 417.17878 372.59766 424.38086 C 352.12193 417.80032 331.6495 411.16463 311.20703 404.45703 C 313.30989 401.82867 320.311 403.70543 324.08203 402.61133 C 339.75882 401.6271 355.42595 400.46261 371.11133 399.62695 z M 436.5957 399.62695 C 452.28108 400.46261 467.9482 401.6271 483.625 402.61133 C 487.39602 403.70543 494.39715 401.82867 496.5 404.45703 C 476.05752 411.16463 455.58512 417.80032 435.10938 424.38086 C 430.68797 417.17878 435.59357 408.89457 436.26172 401.24023 L 436.39258 400.60742 L 436.5957 399.62695 z M 204.2793 399.66797 C 207.95291 399.70955 210.70467 403.85279 214.18359 406.17578 C 216.28186 409.02808 224.8855 411.7152 219.39844 414.94141 C 212.82042 420.78731 207.07696 428.16482 199.98438 433.10742 C 193.99157 434.40977 187.99355 435.6842 182.00781 437.01758 C 182.25348 429.95493 177.99811 421.54766 184.25195 416.18164 C 189.07852 410.65261 192.03224 402.25203 200.23828 401.21289 C 201.72922 400.09591 203.05476 399.65411 204.2793 399.66797 z M 603.42578 399.66797 C 604.65032 399.65411 605.97781 400.09591 607.46875 401.21289 C 615.67478 402.25203 618.62655 410.65261 623.45312 416.18164 C 629.707 421.54766 625.45355 429.95493 625.69922 437.01758 C 619.71347 435.6842 613.71352 434.40977 607.7207 433.10742 C 600.62812 428.16482 594.88468 420.78731 588.30664 414.94141 C 582.8196 411.7152 591.42519 409.02808 593.52344 406.17578 C 597.00237 403.85279 599.75217 399.70955 603.42578 399.66797 z M 186.25 405.57031 C 185.02474 407.23308 183.79948 408.89583 182.57422 410.55859 C 179.70997 413.75324 178.10258 419.86874 172.7207 417.33203 C 165.29047 416.34762 156.54649 415.81132 149.86914 414.50977 C 153.30213 410.45252 157.22806 407.39571 162.88672 408.08203 C 170.67409 407.24369 178.46239 406.40642 186.25 405.57031 z M 621.45703 405.57031 C 629.24463 406.40642 637.03098 407.24369 644.81836 408.08203 C 650.47699 407.39571 654.40487 410.45252 657.83789 414.50977 C 651.16052 415.81132 642.41654 416.34762 634.98633 417.33203 C 629.60443 419.86874 627.99705 413.75324 625.13281 410.55859 C 623.90753 408.89583 622.68228 407.23308 621.45703 405.57031 z M 311.57227 409.71484 C 331.56857 416.05428 351.60894 422.41254 371.48242 429.01367 C 371.83052 433.36489 371.1302 436.90623 365.66406 435.40039 C 351.48116 435.77797 337.16651 437.17994 323.04883 436.92188 C 318.13488 434.94571 313.37297 432.61243 308.55078 430.42578 C 309.65295 423.64365 309.39581 416.23865 311.57227 409.71484 z M 496.13477 409.71484 C 498.31121 416.23865 498.05406 423.64365 499.15625 430.42578 C 494.33406 432.61243 489.57216 434.94571 484.6582 436.92188 C 470.5405 437.17994 456.22587 435.77797 442.04297 435.40039 C 436.57683 436.90623 435.87651 433.36489 436.22461 429.01367 C 456.09808 422.41254 476.13846 416.05428 496.13477 409.71484 z M 225.88867 415.24219 C 225.75975 416.62107 225.63087 417.99998 225.50195 419.37891 C 224.23882 430.41044 223.56208 442.12678 221.78906 452.71875 C 216.46348 452.30157 211.14075 451.84558 205.82227 451.3457 C 206.04771 446.11865 203.6677 439.93637 205.45898 435.20508 C 212.26458 428.54642 219.07286 421.89023 225.88867 415.24219 z M 581.81836 415.24219 C 588.63417 421.89023 595.44248 428.54642 602.24805 435.20508 C 604.03939 439.93637 601.65913 446.11865 601.88477 451.3457 C 596.56629 451.84558 591.24355 452.30157 585.91797 452.71875 C 584.14495 442.12678 583.46823 430.41044 582.20508 419.37891 C 582.07612 417.99998 581.94724 416.62107 581.81836 415.24219 z M 112.7832 418.21484 C 113.55535 418.59699 114.32747 418.97914 115.09961 419.36133 C 120.53512 422.60813 127.53863 424.5032 131.98047 428.61914 C 133.67277 434.28087 136.5075 440.91876 137.61133 446.0918 C 132.84624 445.03568 125.65134 447.48017 124.5918 440.71875 C 120.63616 433.22758 116.69791 425.72745 112.7832 418.21484 z M 694.92383 418.21484 C 691.00911 425.72745 687.07089 433.22758 683.11523 440.71875 C 682.05568 447.48017 674.86078 445.03568 670.0957 446.0918 C 671.19951 440.91876 674.03233 434.28087 675.72461 428.61914 C 680.16646 424.5032 687.17193 422.60813 692.60742 419.36133 C 693.37958 418.97914 694.15167 418.59699 694.92383 418.21484 z M 230.52344 418.47852 C 231.07617 418.92121 231.6289 419.36394 232.18164 419.80664 C 245.60173 431.00954 260.40075 442.13294 272.77344 453.66016 C 269.89557 459.07595 263.21796 455.02428 258.44336 455.5957 C 247.86739 454.7441 237.28356 453.88828 226.72266 453.00391 C 227.88193 441.47982 229.16245 429.9292 230.52344 418.47852 z M 577.18359 418.47852 C 578.5446 429.9292 579.82508 441.47982 580.98438 453.00391 C 570.42347 453.88828 559.83771 454.7441 549.26172 455.5957 C 544.48712 455.02428 537.81144 459.07595 534.93359 453.66016 C 547.30626 442.13294 562.10531 431.00954 575.52539 419.80664 C 576.07815 419.36394 576.63088 418.92121 577.18359 418.47852 z M 148.15039 418.97461 C 148.84297 419.02177 149.57463 419.19009 150.34961 419.50195 C 153.92783 419.90561 157.50577 420.30924 161.08398 420.71289 C 165.7694 421.93353 172.9772 420.70515 176.15234 423.41602 C 176.05479 430.7785 179.82669 439.14399 173.67773 444.95898 C 171.66144 451.58608 164.12366 447.05076 159.22266 447.75391 C 153.79958 447.32999 148.37725 446.91001 142.95703 446.45117 C 140.64801 439.92 138.52488 433.3252 136.32227 426.75781 C 140.2783 424.17263 143.30235 418.64448 148.15039 418.97461 z M 659.55469 418.97461 C 664.40272 418.64448 667.42876 424.17263 671.38477 426.75781 C 669.18217 433.3252 667.05903 439.92 664.75 446.45117 C 659.32978 446.91001 653.90548 447.32999 648.48242 447.75391 C 643.5814 447.05076 636.0456 451.58608 634.0293 444.95898 C 627.88035 439.14399 631.6522 430.7785 631.55469 423.41602 C 634.72983 420.70515 641.9376 421.93353 646.62305 420.71289 C 650.20124 420.30924 653.77923 419.90561 657.35742 419.50195 C 658.1324 419.19009 658.86211 419.02177 659.55469 418.97461 z M 401.22266 419.74219 L 401.24023 420.74023 L 401.25391 421.29102 C 402.08484 426.60405 400.69196 431.32428 397.13281 435.37695 C 392.56215 442.50881 387.9967 450.02739 383.35938 456.88281 C 380.34796 447.56068 373.74823 438.71367 376.26562 428.55664 C 376.90452 423.0439 379.60943 419.34944 385.64258 420.7832 C 390.8324 420.40827 396.01167 420.05971 401.22266 419.74219 z M 406.48438 419.74219 C 411.69536 420.05971 416.87268 420.40827 422.0625 420.7832 C 428.09565 419.34944 430.80251 423.0439 431.44141 428.55664 C 433.9588 438.71367 427.35907 447.56068 424.34766 456.88281 C 419.71033 450.02739 415.14292 442.50881 410.57227 435.37695 C 407.01312 431.32428 405.6222 426.60405 406.45312 421.29102 L 406.46484 420.74023 L 406.48438 419.74219 z M 306.79297 434.81836 L 307.70703 435.2207 L 308.56836 435.59961 C 315.72596 438.85915 323.51952 441.36863 327.81055 448.50781 C 342.2799 464.91134 356.97044 481.14072 371.20312 497.71875 C 361.73038 504.20703 352.13413 510.91086 342.67383 517.18359 C 333.91664 508.66518 324.26878 500.80056 316.09961 491.8125 C 309.14109 477.67665 302.28948 463.48851 295.39648 449.32031 C 299.20496 444.49465 302.85259 439.53786 306.79297 434.81836 z M 500.91406 434.81836 C 504.85445 439.53786 508.50207 444.49465 512.31055 449.32031 C 505.41752 463.48851 498.56396 477.67665 491.60547 491.8125 C 483.43628 500.80056 473.79041 508.66518 465.0332 517.18359 C 455.57289 510.91086 445.97665 504.20703 436.50391 497.71875 C 450.73659 481.14072 465.42518 464.91134 479.89453 448.50781 C 484.18554 441.36863 491.98108 438.85915 499.13867 435.59961 L 499.99805 435.2207 L 500.91406 434.81836 z M 401.18555 437.76562 L 401.19336 438.76562 L 401.19727 439.29688 C 401.21238 456.48088 401.28542 473.66731 401.03711 490.84961 C 397.15852 490.13834 391.95013 491.02574 392.1543 485.62109 C 390.21067 477.8646 386.83766 469.93303 385.81836 462.26172 C 390.74966 453.97926 396.05911 445.92774 401.18555 437.76562 z M 406.52148 437.76562 C 411.64792 445.92774 416.95737 453.97926 421.88867 462.26172 C 420.86937 469.93303 417.49636 477.8646 415.55273 485.62109 C 415.7569 491.02574 410.54851 490.13834 406.66992 490.84961 C 406.42161 473.66731 406.49465 456.48088 406.50977 439.29688 L 406.51367 438.76562 L 406.52148 437.76562 z M 200.10938 437.92188 C 199.68482 441.85976 202.27085 448.86453 200.0625 450.98828 C 192.23665 450.37955 184.38901 449.74 176.58594 449.08984 C 179.04166 445.26368 181.0473 440.46568 186.41016 440.83789 C 190.97183 439.85673 195.54747 438.86373 200.10938 437.92188 z M 607.59766 437.92188 C 612.15958 438.86373 616.73326 439.85673 621.29492 440.83789 C 626.65781 440.46568 628.66538 445.26368 631.12109 449.08984 C 623.31803 449.74 615.46843 450.37955 607.64258 450.98828 C 605.43443 448.86453 608.02221 441.85976 607.59766 437.92188 z M 371.63672 439.99414 C 371.9576 440.79294 372.27861 441.59178 372.59961 442.39062 C 379.04194 457.88291 384.69503 474.49092 388.27148 490.44336 C 384.22739 491.47506 378.90609 495.37259 375.07031 494.46875 C 359.23046 477.08073 343.71937 459.38846 328.13672 441.78516 C 342.61675 441.09263 357.22621 440.45978 371.63672 439.99414 z M 436.07031 439.99414 C 450.48082 440.45978 465.09026 441.09263 479.57031 441.78516 C 463.98766 459.38846 448.47657 477.08073 432.63672 494.46875 C 428.80095 495.37259 423.47964 491.47506 419.43555 490.44336 C 423.012 474.49092 428.6651 457.88291 435.10742 442.39062 C 435.42842 441.59178 435.74943 440.79294 436.07031 439.99414 z M 290.74805 451.91797 C 292.43779 451.84877 292.53682 455.24872 293.64844 456.41992 C 298.09739 465.57825 302.54644 474.73651 306.99609 483.89453 C 297.13068 475.12803 287.79799 465.17664 277.63672 457.10156 C 274.93219 454.43832 286.48906 453.45298 289.91992 452.17773 C 290.23388 452.00971 290.50666 451.92785 290.74805 451.91797 z M 516.95703 451.91797 C 517.19842 451.92785 517.47315 452.00971 517.78711 452.17773 C 521.21798 453.45298 532.77487 454.43832 530.07031 457.10156 C 519.90905 465.17664 510.57637 475.12803 500.71094 483.89453 C 505.16061 474.73651 509.60964 465.57825 514.05859 456.41992 C 515.1702 455.24872 515.2673 451.84877 516.95703 451.91797 z M 393.08789 494.38086 C 394.15162 494.36353 395.23289 494.50892 396.33398 494.87695 C 404.09362 493.48027 400.51087 501.92175 401.26953 506.58984 C 401.07375 522.60446 401.65793 539.42493 400.95898 554.97266 C 391.8981 551.73009 381.74673 550.41413 373.42383 545.89453 C 364.35844 537.43829 355.31204 528.9652 346.2168 520.54102 C 357.49891 513.52916 367.66864 504.38688 379.67969 498.77148 C 384.16604 497.57538 388.47839 494.45594 393.08789 494.38086 z M 414.61719 494.38086 C 419.22669 494.45594 423.53904 497.57538 428.02539 498.77148 C 440.03643 504.38688 450.20812 513.52916 461.49023 520.54102 C 452.39499 528.9652 443.34664 537.43829 434.28125 545.89453 C 425.95835 550.41413 415.80894 551.73009 406.74805 554.97266 C 406.0491 539.42493 406.63328 522.60446 406.4375 506.58984 C 407.19616 501.92175 403.61341 493.48027 411.37305 494.87695 C 412.47414 494.50892 413.55346 494.36353 414.61719 494.38086 z "
       transform="scale(0.26458333)"
       id="path1765" />
  </g>
</svg>
